"PT. SANGATI SOERYA SEJAHTERA","","","","","","","","","","","","","","","","","","","","","","","","","","","","","","","","","","","","","","","","","",""
"Spt Tax - Pontil_Sumbawa","","","","","","","","","","","","","","","","","","","","","","","","","","","","","","","","","","","","","","","","","",""
"Period : 2020","","","","","","","","","","","","","","","","","","","","","","","","","","","","","","","","","","","","","","","","","",""
"","","","","","","","","","","","","","","","","","","","","","","","","","","","","","","","","","","","","","","","","","",""
"","","","","","","","","","","","","","","","","","","","","","","","","","","","","","","","","","","","","","","","","","",""
"BIODATA ID","NIE","MASA PAJAK","TAHUN PAJAK","PEMBETULAN","NOMOR BUKTI POTONG","MASA PEROLEHAN AWAL","MASA PEROLEHAN AKHIR","NPWP","NIK","NAMA","ALAMAT","GENDER","PTKP","JUMLAH TANGGUNGAN","JABATAN","WP LUAR NEGRI","KODE NEGARA","KODE PAJAK","UPAH ","TUNJANGAN PPH","TUNJANGAN LEMBUR","HONORARIUM","PREMI ASURANSI","NATURA","THR, BONUS","JUMLAH BRUTO (1 SD 7)","BIAYA JABATAN","IURAN PENSIUN","JUMLAH PENGURANGAN (9 SD 10)","JUMLAH NETO (8-11)","NETO MASA SEBELUMNYA","NETO (SETAHUN/DISETAHUNKAN)","PTKP","PKP SETAHUN","PPH 21 ATAS PKP SETAHUN/DISETAHUNKAN","PPH 21 YANG TELAH DIPOTONG MASA SEBELUMNYA","PPH 21 TERUTANG","PPH 21 & PPH 26 YANG TELAH DIPOTONG/DILUNASI","STATUS PINDAH","NPWP PEMOTONG","NAMA PEMOTONG","TANGGAL BUKTI POTONG"
"","","","","","","","","","","","","","","","","","","","","","","","","","","","","","","","","","","","","","","","","","",""
"2019040360","PON081","12","2020","0","0","01","12","91.901.550.3-913.000","5.2041009108E+15","A. Rahman","None","L","K1","0","Driller (PS)","NO","0","21-100-01","27,328,000","1,902,655","69,781,977","0","0","2,186,240","6,812,500","108,011,372","5,400,569","1,557,696","6,958,265","101,053,108","0","101,053,108","63,000,000","38,053,108","38,053,108","0","1,902,655","0","Pegawai Baru","092261544434000","Heri Susanto","07/Dec/20"
"2020010143","PON328","10","2020","0","0","01","10","69.630.482.3-913.000","5.20418111277E+15","Abdul Azis","None","L","K2","0","Driver (PS)","NO","0","21-100-01","20,833,920","0","41,482,715","0","0","1,822,968","6,096,330","70,235,933","3,511,797","1,298,865","2,212,932","68,023,001","0","68,023,001","67,500,000","523,001","523,001","0","0","0","Pegawai Baru","092261544434000","Heri Susanto","07/Dec/20"
"2019080146","PON265","12","2020","0","0","01","12","14.554.930.9-953.000","9.10901270584E+15","Abdul Rahman","None","L","K3","0","Mechanic (PS)","NO","0","21-100-01","54,406,000","11,700,845","107,393,638","0","0","4,352,480","14,587,143","192,440,106","6,000,000","3,101,142","9,101,142","183,338,964","0","183,338,964","72,000,000","111,338,964","111,338,964","0","11,700,845","0","Pegawai Baru","092261544434000","Heri Susanto","07/Dec/20"
"2020010207","PON340","10","2020","0","0","01","10","97.306.566.7-913.000","5.20702250982E+15","Abdul Rauf","None","L","K2","0","General Helper (PS)","NO","0","21-100-01","21,484,980","0","41,866,644","0","0","1,822,968","5,977,082","71,151,674","3,557,584","1,298,865","2,258,719","68,892,955","0","68,892,955","67,500,000","1,392,955","1,392,955","0","0","0","Pegawai Baru","092261544434000","Heri Susanto","07/Dec/20"
"2020010166","PON334","10","2020","0","0","01","10","35.734.649.3-913.000","5.20704100873E+15","Abidin","None","L","K3","0","Driller (PS)","NO","0","21-100-01","43,432,190","0","74,576,525","0","0","3,840,320","12,776,955","134,625,990","6,000,000","2,736,228","3,263,772","131,362,218","0","131,362,218","72,000,000","59,362,218","59,362,218","0","0","0","Pegawai Baru","092261544434000","Heri Susanto","07/Dec/20"
"2019120037","PON294","08","2020","0","0","01","08","93.592.137.9-913.000","5.20702141195E+15","Ade Kurniawan","None","L","K2","0","General Helper (PS)","NO","0","21-100-01","19,857,330","0","49,309,725","0","0","1,640,671","5,060,765","75,868,491","3,793,425","1,168,978","2,624,446","73,244,044","0","73,244,044","67,500,000","5,744,044","5,744,044","0","0","0","Pegawai Baru","092261544434000","Heri Susanto","07/Dec/20"
"2020020039","PON358","08","2020","0","0","01","08","None","5.20702130786E+15","Ade Susanto","None","L","K1","0","General Helper (PS)","NO","0","21-100-01","18,338,190","0","45,476,750","0","0","1,640,671","3,344,710","68,800,321","3,440,016","1,168,978","2,271,038","66,529,283","0","66,529,283","63,000,000","3,529,283","3,529,283","0","0","0","Pegawai Baru","092261544434000","Heri Susanto","07/Dec/20"
"2019090093","PON279","09","2020","0","0","01","09","92.565.708.2-913.000","5.20704311286E+15","Aditia","Dsn. Senutuk, RT.004/RW.003, Des. Aikangkung, Kec. Sekongkang KSB-NTB","L","K3","0","General Helper (PS)","NO","0","21-100-01","18,989,250","0","48,328,969","0","0","1,640,671","5,541,480","74,500,370","3,725,018","1,168,978","2,556,040","71,944,330","0","71,944,330","72,000,000","0","0","0","0","0","Pegawai Baru","092261544434000","Heri Susanto","07/Dec/20"
"2019080144","PON223","10","2020","0","0","01","10","57.665.792.8-405.000","3.17409100876E+15","Agus Febrian Lesmana","None","L","K0","0","Logistic (PS)","NO","0","21-100-01","47,683,867","0","87,008,322","0","0","4,150,720","20,105,050","158,947,959","6,000,000","2,957,388","3,042,612","155,905,347","0","155,905,347","58,500,000","97,405,347","97,405,347","0","0","0","Pegawai Baru","092261544434000","Heri Susanto","07/Dec/20"
"2018100105","PON211","11","2020","0","0","01","11","68.786.235.9-445.000","3.20411170869E+15","Agus Sopandi","None","L","K1","0","Driller (PS)","NO","0","21-100-01","60,800,000","0","124,119,907","0","0","4,864,000","16,568,000","206,351,907","6,000,000","3,465,600","2,534,400","203,817,507","0","203,817,507","63,000,000","140,817,507","140,817,507","0","0","0","Pegawai Baru","092261544434000","Heri Susanto","07/Dec/20"
"2019040349","PON078","10","2020","0","0","01","10","98.195.211.2-913.000","5.20427150985E+15","Ahmad Cahyadi","None","L","K2","0","Asst. Driller (PS)","NO","0","21-100-01","25,000,000","0","58,030,346","0","0","2,000,000","8,250,000","93,280,346","4,664,017","1,425,000","3,239,017","90,041,329","0","90,041,329","67,500,000","22,541,329","22,541,329","0","0","0","Pegawai Baru","092261544434000","Heri Susanto","07/Dec/20"
"2019040326","PON258","12","2020","0","0","01","12","84.995.690.9-913.000","5.20702121193E+15","Ahmad Furqon Ibadullah","None","L","K1","0","Logistic Helper (PS)","NO","0","21-100-01","22,787,100","0","58,838,160","0","0","1,822,968","8,393,249","91,841,477","4,592,074","1,298,865","3,293,209","88,548,268","0","88,548,268","63,000,000","25,548,268","25,548,268","0","0","0","Pegawai Baru","092261544434000","Heri Susanto","07/Dec/20"
"2018050358","PON332","11","2020","0","0","01","11","48.165.107.3-017.000","3.17409201276E+15","Ahmad Suhaefi","Jl. H. Kaisin Rt.004 Rw.004  Ciganjur  Jakarta Sel","L","K3","0","Mechanic (PS)","NO","0","21-100-01","46,171,429","0","84,264,162","0","0","3,840,000","12,789,041","147,064,631","6,000,000","2,736,000","3,264,000","143,800,631","0","143,800,631","72,000,000","71,800,631","71,800,631","0","0","0","Pegawai Baru","092261544434000","Heri Susanto","07/Dec/20"
"2020010262","PON338","10","2020","0","0","01","10","85.937.949.7-913.000","5.20705130584E+15","Ahmadi","None","L","K2","0","General Helper (PS)","NO","0","21-100-01","20,725,410","0","47,082,399","0","0","1,822,968","5,977,082","75,607,859","3,780,393","1,298,865","2,481,528","73,126,331","0","73,126,331","67,500,000","5,626,331","5,626,331","0","0","0","Pegawai Baru","092261544434000","Heri Susanto","07/Dec/20"
"2018040066","PON071","12","2020","0","0","01","12","0","5.2041121079E+15","Alansyah","None","L","K1","0","Driller (PS)","NO","0","21-100-01","27,328,000","0","71,178,878","0","0","2,186,240","8,250,000","108,943,118","5,447,156","1,557,696","3,889,460","105,053,658","0","105,053,658","63,000,000","42,053,658","42,053,658","0","0","0","Pegawai Baru","092261544434000","Heri Susanto","07/Dec/20"
"2017103089","PON100","10","2020","0","0","01","10","64.197.830.9-953.000","7.10213240477E+15","Alfrets Pangemanan","Jl. Busiri Ujung RT. 23, Inauga, Mimika - Papua","L","K2","0","Asst. Driller (PS)","NO","0","21-100-01","54,406,000","0","119,960,512","0","0","4,352,480","15,641,725","194,360,717","6,000,000","3,101,142","2,898,858","191,461,859","0","191,461,859","67,500,000","123,961,859","123,961,859","0","0","0","Pegawai Baru","092261544434000","Heri Susanto","07/Dec/20"
"2019040362","PON233","08","2020","0","0","01","08","25.135.111.0-406.000","3.20307160864E+15","Alun Juanda","None","L","K2","0","Driller (PS)","NO","0","21-100-01","45,455,238","0","78,126,243","0","0","3,891,200","13,984,000","141,456,681","6,000,000","2,772,480","3,227,520","138,229,161","0","138,229,161","67,500,000","70,729,161","70,729,161","0","0","0","Pegawai Baru","092261544434000","Heri Susanto","07/Dec/20"
"2020010211","PON344","08","2020","0","0","01","08","94.245.205.3-913.000","5.20703020701E+15","Andhika Putra W","None","L","TK0","0","General Helper (PS)","NO","0","21-100-01","16,059,480","0","44,957,782","0","0","1,458,374","3,356,566","65,832,202","3,291,610","1,039,092","2,252,518","63,579,684","0","63,579,684","54,000,000","9,579,684","9,579,684","0","0","0","Pegawai Baru","092261544434000","Heri Susanto","07/Dec/20"
"2018040060","PON077","09","2020","0","0","01","09","98.195.202.1-913.000","5.20427250889E+15","Andri Irawan","None","L","K1","0","Asst. Driller (PS) ","NO","0","21-100-01","20,357,143","0","52,108,175","0","0","1,800,000","6,812,500","81,077,818","4,053,891","1,282,500","2,771,391","78,306,427","0","78,306,427","63,000,000","15,306,427","15,306,427","0","0","0","Pegawai Baru","092261544434000","Heri Susanto","07/Dec/20"
"2019040353","PON254","08","2020","0","0","01","08","0","5.2070117079E+15","Andy Abdul Aziz","None","L","TK0","0","General Helper (PS)","NO","0","21-100-01","16,493,520","0","47,763,362","0","0","1,458,374","7,519,743","73,234,999","3,661,750","1,039,092","2,622,658","70,612,341","0","70,612,341","54,000,000","16,612,341","16,612,341","0","0","0","Pegawai Baru","092261544434000","Heri Susanto","07/Dec/20"
"2020030067","PON371","07","2020","0","0","03","09","None","5.20405150796E+15","Anugrah Hartas","None","L","TK0","0","General Helper (PS)","NO","0","21-100-01","14,757,360","0","37,287,063","0","0","1,458,374","3,138,689","56,641,486","2,832,074","1,039,092","1,792,983","54,848,503","0","54,848,503","54,000,000","848,503","848,503","0","0","0","Pegawai Baru","092261544434000","Heri Susanto","07/Dec/20"
"2020030065","PON370","07","2020","0","0","03","09","94.935.481.5-913.000","5.20702171098E+15","Ari Kusuma Jaya","None","L","TK0","0","General Helper (PS)","NO","0","21-100-01","13,885,280","0","35,776,096","0","0","1,275,758","3,138,689","54,075,822","2,703,791","908,977","1,794,814","52,281,008","0","52,281,008","54,000,000","0","0","0","0","0","Pegawai Baru","092261544434000","Heri Susanto","07/Dec/20"
"2018110032","PON356","11","2020","0","0","01","11","86.751.096.8-913.000","5.20702150478E+15","Arifuddin","DUSUN LALAR RT. 005/001  KEL. LALAR LIANG KEC. TALIWANG KAB. SUMBAWA BARAT","L","K1","0","Driller (PS)","NO","0","21-100-01","43,889,371","0","97,073,955","0","0","3,840,320","14,406,680","159,210,327","6,000,000","2,736,228","3,263,772","155,946,555","0","155,946,555","63,000,000","92,946,555","92,946,555","0","0","0","Pegawai Baru","092261544434000","Heri Susanto","07/Dec/20"
"2020030080","PON377","07","2020","0","0","03","09","93.712.565.6-913.000","5.20704300698E+15","Arya Johor","None","L","TK0","0","General Helper (PS)","NO","0","21-100-01","13,889,280","0","36,233,361","0","0","1,276,078","3,094,988","54,493,706","2,724,685","909,205","1,815,480","52,678,226","0","52,678,226","54,000,000","0","0","0","0","0","Pegawai Baru","092261544434000","Heri Susanto","07/Dec/20"
"2018040055","PON061","04","2020","0","0","01","04","92.097.062.1-423.000","3.273140911777E+16","Ayi Tosin","None","L","K2","0","Logistic Officer (PS)","NO","0","21-100-01","15,565,200","0","28,251,288","0","0","1,245,216","0","45,061,704","2,253,085","887,216","3,140,302","41,921,402","0","41,921,402","67,500,000","0","0","0","0","0","Pegawai Baru","092261544434000","Heri Susanto","07/Dec/20"
"2020030063","PON376","07","2020","0","0","03","09","None","5.207080404E+15","Bayu Anugrah Saputra","None","L","TK0","0","General Helper (PS)","NO","0","21-100-01","13,889,280","0","29,445,926","0","0","1,276,078","3,138,689","47,749,972","2,387,499","909,205","1,478,293","46,271,678","0","46,271,678","54,000,000","0","0","0","0","0","Pegawai Baru","092261544434000","Heri Susanto","07/Dec/20"
"2018090250","PON361","11","2020","0","0","02","12","87.551.892.0-117.000","1.20707191178E+15","Belman Sihombing","JL.GN.SINABUNG PERUM GRAND MARCAPADA INDAH NO.23 BINJAI","L","K0","0","Driller (PS)","NO","0","21-100-01","47,481,905","0","99,726,531","0","0","4,377,600","6,992,000","158,578,036","6,000,000","3,119,040","2,880,960","155,697,076","0","155,697,076","58,500,000","97,197,076","97,197,076","0","0","0","Pegawai Baru","092261544434000","Heri Susanto","07/Dec/20"
"2020010144","PON329","10","2020","0","0","01","10","48.620.023.3-913.000","5.20708240675E+15","Bobby Sutendra","None","L","K3","0","Driver (PS)","NO","0","21-100-01","20,833,920","0","46,945,949","0","0","1,822,968","4,786,072","74,388,909","3,719,445","1,298,865","2,420,581","71,968,328","0","71,968,328","72,000,000","0","0","0","0","0","Pegawai Baru","092261544434000","Heri Susanto","07/Dec/20"
"2018090247","9181789","10","2020","0","0","01","10","87.010.290.2-009.000","3.17509270772E+15","Budi Utomo","JL.PERTIWI NO. 21 KEL.SUSUKAN KEC.CIRACAS- JAKARTA TIMUR","L","K2","0","Logistic (PS)","NO","0","21-100-01","10,376,800","0","15,340,269","0","0","830,144","5,966,660","32,513,873","1,625,694","591,478","1,034,216","31,479,657","0","31,479,657","67,500,000","0","0","0","0","0","Pegawai Baru","092261544434000","Heri Susanto","07/Dec/20"
"2019040336","PON076","10","2020","0","0","01","10","0","5.2041108089E+15","Busrayuddin","None","L","TK0","0","Asst. Driller (PS)","NO","0","21-100-01","26,552,000","0","57,810,855","0","0","2,124,160","8,696,200","95,183,215","4,759,161","1,513,464","3,245,697","91,937,519","0","91,937,519","54,000,000","37,937,519","37,937,519","0","0","0","Pegawai Baru","092261544434000","Heri Susanto","07/Dec/20"
"2019120038","PON286","08","2020","0","0","01","08","48.165.112.3-913.000","5.20704040272E+15","Bustanuddin","None","L","K2","0","Driller (PS)","NO","0","21-100-01","41,970,343","0","76,796,891","0","0","3,481,984","12,082,976","134,332,194","6,000,000","2,480,914","3,519,086","130,813,107","0","130,813,107","67,500,000","63,313,107","63,313,107","0","0","0","Pegawai Baru","092261544434000","Heri Susanto","07/Dec/20"
"2020030062","PON373","07","2020","0","0","03","09","None","5.20408040598E+15","Buyung Kamaruszaman","None","L","K1","0","General Helper (PS)","NO","0","21-100-01","16,167,990","0","32,321,319","0","0","1,458,374","3,138,689","53,086,372","2,654,319","1,039,092","1,615,227","51,471,145","0","51,471,145","63,000,000","0","0","0","0","0","Pegawai Baru","092261544434000","Heri Susanto","07/Dec/20"
"2018040059","PON048","12","2020","0","0","01","12","98.195.213.8-913.000","5.20402170888E+15","Darusi Ade Pranata","None","L","K1","0","Asst. Driller (PS)","NO","0","21-100-01","26,552,000","0","67,768,925","0","0","2,124,160","6,812,500","103,257,585","5,162,879","1,513,464","3,649,415","99,608,170","0","99,608,170","63,000,000","36,608,170","36,608,170","0","0","0","Pegawai Baru","092261544434000","Heri Susanto","07/Dec/20"
"2017060225","9191264","12","2020","0","0","01","12","14.494.458.4-953.000","3.51111260466E+15","David Budiantono","Jl. Diponegoro RT 023/005, Kel Kota kulon Bondowos","L","K2","0","Logistic Officer (PS)","NO","0","21-100-01","10,570,800","0","10,586,076","0","0","845,664","0","22,002,540","1,100,127","602,536","497,591","21,504,948","0","21,504,948","67,500,000","0","0","0","0","0","Pegawai Baru","092261544434000","Heri Susanto","07/Dec/20"
"2018090254","PON196","04","2020","0","0","01","04","47.469.842.0-405.000","3.20222130469E+15","Dawud","None","L","K3","0","Driller (PS)","NO","0","21-100-01","20,556,190","0","46,187,861","0","0","1,945,600","6,992,000","75,681,652","3,784,083","1,386,240","2,397,843","73,283,809","0","73,283,809","72,000,000","1,283,809","1,283,809","0","0","0","Pegawai Baru","092261544434000","Heri Susanto","07/Dec/20"
"2019090025","PON270","11","2020","0","0","01","11","80.571.162.9-823.000","7.10609141096E+15","Daymond Hill Manumpil","None","L","TK0","0","Mechanic Drill (PS)","NO","0","21-100-01","32,000,000","0","60,587,283","0","0","2,560,000","7,360,000","102,507,283","5,125,364","1,824,000","3,301,364","99,205,919","0","99,205,919","54,000,000","45,205,919","45,205,919","0","0","0","Pegawai Baru","092261544434000","Heri Susanto","07/Dec/20"
"2017060226","PON019","11","2020","0","0","01","11","73.908.405.1-823.000","7.10609031278E+15","Decky Manopode","None","L","K2","0","Driller I (PS)","NO","0","21-100-01","54,406,000","0","123,639,993","0","0","4,352,480","9,385,035","191,783,508","6,000,000","3,101,142","2,898,858","188,884,650","0","188,884,650","67,500,000","121,384,650","121,384,650","0","0","0","Pegawai Baru","092261544434000","Heri Susanto","07/Dec/20"
"2018040056","PON096","10","2020","0","0","01","10","80.187.169.0-913.000","5.20408260477E+15","Dedy Sobari","None","L","K1","0","SHE Reps (PS)","NO","0","21-100-01","26,278,000","0","69,498,956","0","0","2,102,240","10,182,725","108,061,921","5,403,096","1,497,846","3,905,250","104,156,671","0","104,156,671","63,000,000","41,156,671","41,156,671","0","0","0","Pegawai Baru","092261544434000","Heri Susanto","07/Dec/20"
"2020030066","PON375","07","2020","0","0","03","09","91.092.501.5-913.000","5.20708120898E+15","Dendy","None","L","TK0","0","General Helper (PS)","NO","0","21-100-01","12,478,650","0","36,030,477","0","0","1,276,078","3,138,689","52,923,893","2,646,195","909,205","1,736,989","51,186,904","0","51,186,904","54,000,000","0","0","0","0","0","Pegawai Baru","092261544434000","Heri Susanto","07/Dec/20"
"2020020001","PON350","05","2020","0","0","01","05","94.245.388.7-913.000","5.20701021288E+15","Dian Badriansyah","None","L","TK0","0","General Helper (PS)","NO","0","21-100-01","8,789,310","0","21,016,171","0","0","911,484","2,078,152","32,795,117","1,639,756","649,432","990,323","31,804,793","0","31,804,793","54,000,000","0","0","0","0","0","Pegawai Baru","092261544434000","Heri Susanto","07/Dec/20"
"2020010215","PON348","08","2020","0","0","01","08","94.192.571.1-913.000","5.20701170389E+15","Didik Prasetya","None","L","K2","0","General Helper (PS)","NO","0","21-100-01","16,059,480","0","45,642,712","0","0","1,458,374","3,356,566","66,517,133","3,325,857","1,039,092","2,286,765","64,230,368","0","64,230,368","67,500,000","0","0","0","0","0","Pegawai Baru","092261544434000","Heri Susanto","07/Dec/20"
"2020010139","PON306","10","2020","0","0","01","10","58.878.600.4-913.000","5.20408080577E+15","Digdo Supriyono","None","L","K3","0","Welder (PS)","NO","0","21-100-01","28,285,714","0","73,448,647","0","0","2,400,000","6,301,027","110,435,388","5,521,769","1,710,000","3,811,769","106,623,619","0","106,623,619","72,000,000","34,623,619","34,623,619","0","0","0","Pegawai Baru","092261544434000","Heri Susanto","07/Dec/20"
"2017103070","PON053","12","2020","0","0","01","12","68.512.321.8-621.000","3.57701271075E+15","Doddy Hardiono","Jl. Thamrin No. 26 RT. 01/01, Klegen, Kartoharjo, Madiun","L","K2","0","Driller I (PS)","NO","0","21-100-01","43,524,800","0","70,837,870","0","0","3,481,984","11,697,290","129,541,944","6,000,000","2,480,914","3,519,086","126,022,857","0","126,022,857","67,500,000","58,522,857","58,522,857","0","0","0","Pegawai Baru","092261544434000","Heri Susanto","07/Dec/20"
"2019040358","PON086","06","2020","0","0","01","06","98.195.183.3-913.000","5.20410051285E+15","Dodi Andi Hamda","None","L","K2","0","Asst. Driller (PS)","NO","0","21-100-01","15,000,000","0","30,513,006","0","0","1,200,000","5,375,000","52,088,006","2,604,400","855,000","1,749,400","50,338,605","0","50,338,605","67,500,000","0","0","0","0","0","Pegawai Baru","092261544434000","Heri Susanto","07/Dec/20"
"2020020040","PON352","12","2020","0","0","01","12","91.210.469.2-913.000","5.20701181094E+15","Dony Irvansyah","None","L","TK0","0","SHE Reps (PS)","NO","0","21-100-01","22,738,095","0","59,843,999","0","0","2,000,000","10,377,854","94,959,949","4,747,997","1,425,000","3,322,997","91,636,951","0","91,636,951","54,000,000","37,636,951","37,636,951","0","0","0","Pegawai Baru","092261544434000","Heri Susanto","07/Dec/20"
"2018050437","PON234","08","2020","0","0","01","08","47.236.753.1-445.000","3.20411111286E+15","Dony Vriansyah","None","L","K1","0","Driller (PS)","NO","0","21-100-01","45,455,238","0","102,375,953","0","0","3,891,200","20,064,000","171,786,392","6,000,000","2,772,480","3,227,520","168,558,872","0","168,558,872","63,000,000","105,558,872","105,558,872","0","0","0","Pegawai Baru","092261544434000","Heri Susanto","07/Dec/20"
"2020070005","PON386","04","2020","0","0","06","09","57.701.464.0-219.000","1.40309040678E+15","Elfrido Sihombing","Jl. Lingkar danau buatan Perum Yepupa blok E 26, RT. 05/10, Kel. Lembah Sari Kec. Rumbai Pesisir ","L","K1","0","Mechanic (PS)","NO","0","21-100-01","14,400,000","0","20,004,624","0","0","1,536,000","2,760,000","38,700,624","1,935,031","1,094,400","840,631","37,859,993","0","37,859,993","63,000,000","0","0","0","0","0","Pegawai Baru","092261544434000","Heri Susanto","07/Dec/20"
"2019120032","PON289","08","2020","0","0","01","08","74.285.962.2-915.000","5.2020731128702E+15","Erwin Putradi","None","L","K1","0","General Helper (PS)","NO","0","21-100-01","17,578,620","0","43,699,882","0","0","1,458,374","5,060,765","67,797,641","3,389,882","1,039,092","2,350,790","65,446,851","0","65,446,851","63,000,000","2,446,851","2,446,851","0","0","0","Pegawai Baru","092261544434000","Heri Susanto","07/Dec/20"
"2019120035","PON290","02","2020","0","0","01","02","None","5.20708020578E+15","Faisal Halfan","None","L","K3","0","General Helper (PS)","NO","0","21-100-01","6,836,130","0","16,612,198","0","0","546,890","1,310,258","25,305,477","1,265,274","389,659","875,614","24,429,863","0","24,429,863","72,000,000","0","0","0","0","0","Pegawai Baru","092261544434000","Heri Susanto","07/Dec/20"
"2017103071","PON057","10","2020","0","0","01","10","16.739.465.9-953.000","7.1730419088E+15","Fransiskus Franky Sompotan","Tembagapura, MImika - Papua","L","TK0","0","Driller I (PS)","NO","0","21-100-01","50,778,933","0","106,528,803","0","0","4,352,480","12,513,380","174,173,596","6,000,000","3,101,142","2,898,858","171,274,738","0","171,274,738","54,000,000","117,274,738","117,274,738","0","0","0","Pegawai Baru","092261544434000","Heri Susanto","07/Dec/20"
"2019040334","PON236","11","2020","0","0","01","11","77.291.778.7-653.000","3.50514140474E+15","Hadi Widayanto","None","L","K2","0","Electrician (PS) ","NO","0","21-100-01","60,800,000","0","81,781,271","0","0","4,864,000","20,064,000","167,509,271","6,000,000","3,465,600","2,534,400","164,974,871","0","164,974,871","67,500,000","97,474,871","97,474,871","0","0","0","Pegawai Baru","092261544434000","Heri Susanto","07/Dec/20"
"2020020038","PON359","10","2020","0","0","01","10","97.386.030.7-913.000","5.2070831128E+15","Haeruddin","None","L","K2","0","General Helper (PS)","NO","0","21-100-01","20,725,410","0","38,640,884","0","0","1,822,968","7,275,484","68,464,746","3,423,237","1,298,865","2,124,373","66,340,373","0","66,340,373","67,500,000","0","0","0","0","0","Pegawai Baru","092261544434000","Heri Susanto","07/Dec/20"
"2019090089","PON277","09","2020","0","0","01","09","0","5.20704100386E+15","Hamdi","Dsn. Senutuk, RT.004/RW.003, Des. Aikangkung, Kec. Sekongkang KSB-NTB","L","K3","0","General Helper (PS)","NO","0","21-100-01","18,989,250","0","48,203,837","0","0","1,640,671","5,541,480","74,375,238","3,718,762","1,168,978","2,549,784","71,825,454","0","71,825,454","72,000,000","0","0","0","0","0","Pegawai Baru","092261544434000","Heri Susanto","07/Dec/20"
"2020010214","PON347","10","2020","0","0","01","10","94.436.274.8-914.000","5.20406040479E+15","Hamzah","None","L","K2","0","General Helper (PS)","NO","0","21-100-01","20,833,920","0","39,127,987","0","0","1,822,968","5,977,082","67,761,957","3,388,098","1,298,865","2,089,233","65,672,724","0","65,672,724","67,500,000","0","0","0","0","0","Pegawai Baru","092261544434000","Heri Susanto","07/Dec/20"
"2018110093","PON303","09","2020","0","0","01","09","77.656.940.2-913.000","5.20708090582E+15","Harris Cahyadi","DSN.TATAR RT. 005 RW.003 KEL. BENETE KEC. MALUK","L","K2","0","Logistic Officer (PS)","NO","0","21-100-01","48,000,000","0","116,835,259","0","0","3,840,000","10,370,959","179,046,218","6,000,000","2,736,000","3,264,000","175,782,218","0","175,782,218","58,500,000","117,282,218","117,282,218","0","0","0","Pegawai Baru","092261544434000","Heri Susanto","07/Dec/20"
"2018040067","PON125","10","2020","0","0","01","10","0","5.2040201076501E+15","Haryono","None","L","K1","0","Driller (PS)","NO","0","21-100-01","50,778,933","0","86,261,746","0","0","4,352,480","17,953,980","159,347,139","6,000,000","3,101,142","2,898,858","156,448,281","0","156,448,281","63,000,000","93,448,281","93,448,281","0","0","0","Pegawai Baru","092261544434000","Heri Susanto","07/Dec/20"
"2019120034","PON292","09","2020","0","0","01","09","94.478.878.5-913.000","5.20705070784E+15","Heri Marianto","None","L","K3","0","General Helper (PS)","NO","0","21-100-01","20,291,370","0","41,081,205","0","0","1,640,671","7,681,281","70,694,527","3,534,726","1,168,978","2,365,748","68,328,779","0","68,328,779","72,000,000","0","0","0","0","0","Pegawai Baru","092261544434000","Heri Susanto","07/Dec/20"
"2018012821","PON305","09","2020","0","0","01","09","67.983.221.2-724.000","3.50314080371E+15","Heri Trimanto","rejoso binangun blitar Jatim","L","K1","0","Mechanic (PS)","NO","0","21-100-01","41,371,429","0","88,772,253","0","0","3,456,000","10,370,959","143,970,641","6,000,000","2,462,400","3,537,600","140,433,041","0","140,433,041","63,000,000","77,433,041","77,433,041","0","0","0","Pegawai Baru","092261544434000","Heri Susanto","07/Dec/20"
"2018040070","PON128","10","2020","0","0","01","10","87.357.752.2-913.000","5.20423150683E+15","Hermansyah","None","L","K1","0","Mechanic (PS)","NO","0","21-100-01","48,004,000","0","117,859,068","0","0","3,840,320","15,841,320","185,544,708","6,000,000","2,736,228","3,263,772","182,280,936","0","182,280,936","63,000,000","119,280,936","119,280,936","0","0","0","Pegawai Baru","092261544434000","Heri Susanto","07/Dec/20"
"2018040062","PON112","12","2020","0","0","01","12","66.441.966.0-913.000","5.20408081069E+15","Ibrahim","None","L","K3","0","Driller 1-1 (PS)","NO","0","21-100-01","48,004,000","0","106,510,145","0","0","3,840,320","13,081,090","171,435,555","6,000,000","2,736,228","3,263,772","168,171,783","0","168,171,783","72,000,000","96,171,783","96,171,783","0","0","0","Pegawai Baru","092261544434000","Heri Susanto","07/Dec/20"
"2018010712","PON368","07","2020","0","0","02","08","None","21045","Idham Halik","Jalan Nangka II No.05 Karangnangka  Maguwoharjo Sl","L","TK0","0","General Helper (PS)","NO","0","21-100-01","13,563,750","0","38,762,058","0","0","1,276,078","3,201,120","56,803,005","2,840,150","909,205","1,930,945","54,872,060","0","54,872,060","54,000,000","872,060","872,060","0","0","0","Pegawai Baru","092261544434000","Heri Susanto","07/Dec/20"
"2020010212","PON345","08","2020","0","0","01","08","97.850.069.2-913.000","5.20702260292E+15","Ifan Syahdinata","None","L","K2","0","General Helper (PS)","NO","0","21-100-01","18,338,190","0","48,453,563","0","0","1,640,671","3,356,566","71,788,990","3,589,449","1,168,978","2,420,471","69,368,519","0","69,368,519","67,500,000","1,868,519","1,868,519","0","0","0","Pegawai Baru","092261544434000","Heri Susanto","07/Dec/20"
"2020010142","PON324","10","2020","0","0","01","10","85.325.377.1-913.000","5.20704101183E+15","Ihksan Aryadi","None","L","K1","0","Driver (PS)","NO","0","21-100-01","22,461,570","0","64,166,127","0","0","1,822,968","4,786,072","93,236,737","4,661,837","1,298,865","3,362,972","89,873,765","0","89,873,765","63,000,000","26,873,765","26,873,765","0","0","0","Pegawai Baru","092261544434000","Heri Susanto","07/Dec/20"
"2019120031","PON288","08","2020","0","0","01","08","94.534.681.5-913.000","5.20703220997E+15","Ikrar Putra Sani","None","L","K0","0","General Helper (PS)","NO","0","21-100-01","17,578,620","0","46,768,895","0","0","1,458,374","5,060,765","70,866,654","3,543,333","1,039,092","2,504,241","68,362,413","0","68,362,413","58,500,000","9,862,413","9,862,413","0","0","0","Pegawai Baru","092261544434000","Heri Susanto","07/Dec/20"
"2017103067","PON054","10","2020","0","0","01","10","77.801.328.4-404.000","3.27106050369E+15","Imam Darmawan","none","L","K3","0","Driller II (PS)","NO","0","21-100-01","56,754,133","0","97,240,076","0","0","4,864,640","20,066,640","178,925,489","6,000,000","3,466,056","2,533,944","176,391,545","0","176,391,545","72,000,000","104,391,545","104,391,545","0","0","0","Pegawai Baru","092261544434000","Heri Susanto","07/Dec/20"
"2020030064","PON374","07","2020","0","0","03","09","None","5.20707050579E+15","Irwan Burhanuddin","None","L","K2","0","General Helper (PS)","NO","0","21-100-01","16,167,990","0","32,941,706","0","0","1,458,374","3,138,689","53,706,759","2,685,338","1,039,092","1,646,246","52,060,513","0","52,060,513","67,500,000","0","0","0","0","0","Pegawai Baru","092261544434000","Heri Susanto","07/Dec/20"
"2019040335","PON083","12","2020","0","0","01","12","98.195.173.4-913.000","5.20427030573E+15","Irwan Maula","None","L","K2","0","Asst. Driller (PS)","NO","0","21-100-01","25,000,000","0","62,521,675","0","0","2,000,000","6,812,500","96,334,175","4,816,709","1,425,000","3,391,709","92,942,467","0","92,942,467","67,500,000","25,442,467","25,442,467","0","0","0","Pegawai Baru","092261544434000","Heri Susanto","07/Dec/20"
"2018040058","PON098","10","2020","0","0","01","10","0","5.20408120576E+15","Ismail","None","L","K3","0","Driller 1-4 (PS)","NO","0","21-100-01","48,004,000","0","115,625,356","0","0","3,840,320","18,601,550","186,071,226","6,000,000","2,736,228","3,263,772","182,807,454","0","182,807,454","72,000,000","110,807,454","110,807,454","0","0","0","Pegawai Baru","092261544434000","Heri Susanto","07/Dec/20"
"2019120098","PON372","10","2020","0","0","01","10","None","5.2070431129E+15","Iwan Jayadi","None","L","TK0","0","General Helper (PS)","NO","0","21-100-01","18,229,680","0","48,882,959","0","0","1,458,374","4,448,947","73,019,960","3,650,998","1,039,092","2,611,906","70,408,054","0","70,408,054","54,000,000","16,408,054","16,408,054","0","0","0","Pegawai Baru","092261544434000","Heri Susanto","07/Dec/20"
"2017060249","PON045","10","2020","0","0","01","10","47.964.659.8-401.000","3.60202160265E+15","Iyus Marwandi","None","L","K2","0","Driller II (PS)","NO","0","21-100-01","60,808,000","0","127,046,540","0","0","4,864,640","20,066,640","212,785,820","6,000,000","3,466,056","2,533,944","210,251,876","0","210,251,876","67,500,000","142,751,876","142,751,876","0","0","0","Pegawai Baru","092261544434000","Heri Susanto","07/Dec/20"
"2017103087","PON107","08","2020","0","0","01","08","54.641.332.9-823.000","7.1061001018E+15","Jandry Jemmy Novi Kodoatie","Jaga 2, Paslaten, Likupang Selatan, Minahasa Utara","L","K2","0","Driller I (PS)","NO","0","21-100-01","35,888,705","0","73,615,382","0","0","3,072,256","13,801,150","126,377,493","6,000,000","2,188,982","3,811,018","122,566,475","0","122,566,475","67,500,000","55,066,475","55,066,475","0","0","0","Pegawai Baru","092261544434000","Heri Susanto","07/Dec/20"
"2019040327","PON155","09","2020","0","0","01","09","67.363.583.5-953.000","1.27116040171E+15","Jannus Sitorus","Jl. C. Hetaubun BL. 1, Kwamki - Mimika Baru, Mimika Papua","L","K3","0","Senior Driller (PS)","NO","0","21-100-01","54,148,076","0","111,176,707","0","0","4,378,176","13,985,840","183,688,800","6,000,000","3,119,450","2,880,550","180,808,250","0","180,808,250","72,000,000","108,808,250","108,808,250","0","0","0","Pegawai Baru","092261544434000","Heri Susanto","07/Dec/20"
"2019040351","PON121","09","2020","0","0","01","09","0","5.20427050184E+15","Janoal Arifin","None","L","K2","0","Asst. Driller (PS)","NO","0","21-100-01","25,000,000","0","56,400,288","0","0","2,000,000","6,812,500","90,212,788","4,510,639","1,425,000","3,085,639","87,127,149","0","87,127,149","67,500,000","19,627,149","19,627,149","0","0","0","Pegawai Baru","092261544434000","Heri Susanto","07/Dec/20"
"2017103068","PON060","10","2020","0","0","01","10","69.690.489.5-953.000","9.10901020767E+15","Johan Lekahena","Jl. Paulus Magal Kel. Kwamki Kec. Mimika Baru, Mimika - Papua","L","K3","0","Driller II (PS)","NO","0","21-100-01","60,808,000","0","119,753,096","0","0","4,864,640","13,985,840","199,411,576","6,000,000","3,466,056","2,533,944","196,877,632","0","196,877,632","72,000,000","124,877,632","124,877,632","0","0","0","Pegawai Baru","092261544434000","Heri Susanto","07/Dec/20"
"2019120340","PON364","08","2020","0","0","01","08","None","5.20708171299E+15","Johri Ramdanu","None","L","TK0","0","General Helper (PS)","NO","0","21-100-01","13,346,730","0","33,532,880","0","0","1,276,078","3,201,120","51,356,807","2,567,840","909,205","1,658,635","49,698,172","0","49,698,172","54,000,000","0","0","0","0","0","Pegawai Baru","092261544434000","Heri Susanto","07/Dec/20"
"2018040063","PON113","10","2020","0","0","01","10","54.040.491.0-825.000","7.10319140269E+15","Jonelson Piter Manansang","Lindongan H. Salurang RT. 01, Salurang - Tabukan Selatan Tengah, Kepulauan Sangihe, Sulawesi Utara","L","K0","0","Asst. Driller (PS)","NO","0","21-100-01","54,406,000","0","119,473,060","0","0","4,352,480","9,385,035","187,616,575","6,000,000","3,101,142","2,898,858","184,717,717","0","184,717,717","58,500,000","126,217,717","126,217,717","0","0","0","Pegawai Baru","092261544434000","Heri Susanto","07/Dec/20"
"2019040350","PON245","10","2020","0","0","01","10","84.980.917.3-913.000","5.20704060288E+15","Junaidi","None","L","K0","0","General Helper (PS)","NO","0","21-100-01","22,787,100","0","59,299,171","0","0","1,822,968","10,140,260","94,049,499","4,702,475","1,298,865","3,403,610","90,645,888","0","90,645,888","58,500,000","32,145,888","32,145,888","0","0","0","Pegawai Baru","092261544434000","Heri Susanto","07/Dec/20"
"2019040328","PON260","12","2020","0","0","01","12","85.900.108.3-913.000","5.2070808029E+15","Juraidin","None","L","K1","0","Logistic Helper (PS)","NO","0","21-100-01","22,787,100","0","62,052,064","0","0","1,822,968","8,393,249","95,055,380","4,752,769","1,298,865","3,453,904","91,601,476","0","91,601,476","63,000,000","28,601,476","28,601,476","0","0","0","Pegawai Baru","092261544434000","Heri Susanto","07/Dec/20"
"2017103080","PON087","11","2020","0","0","01","11","73.144.016.8-953.000","7.10601140385E+15","Kasim Aku","Jl. Pattimura Gang Rejeki, Koperapoka, Mimika Baru, Mimika Papua","L","K1","0","Driller 1-1 (PS)","NO","0","21-100-01","50,914,000","0","68,469,029","0","0","4,073,120","13,874,065","137,330,214","6,000,000","2,902,098","3,097,902","134,232,312","0","134,232,312","63,000,000","71,232,312","71,232,312","0","0","0","Pegawai Baru","092261544434000","Heri Susanto","07/Dec/20"
"2019120036","PON291","09","2020","0","0","01","09","84.372.249.7-913.000","5.2070504068E+15","Khaeruddin","None","L","K2","0","General Helper (PS)","NO","0","21-100-01","22,787,100","0","57,929,574","0","0","1,822,968","6,371,023","88,910,665","4,445,533","1,298,865","3,146,669","85,763,996","0","85,763,996","67,500,000","18,263,996","18,263,996","0","0","0","Pegawai Baru","092261544434000","Heri Susanto","07/Dec/20"
"2020010208","PON341","08","2020","0","0","01","08","None","5.20704080801E+15","L. Doni Ikhsan Setiawan","None","L","TK0","0","General Helper (PS)","NO","0","21-100-01","15,950,970","0","42,527,596","0","0","1,458,374","3,356,566","63,293,507","3,164,675","1,039,092","2,125,584","61,167,923","0","61,167,923","54,000,000","7,167,923","7,167,923","0","0","0","Pegawai Baru","092261544434000","Heri Susanto","07/Dec/20"
"2020010261","PON337","09","2020","0","0","01","09","94.510.839.7-913.000","5.20204140882E+15","Lalu Bangsawan","None","L","K1","0","General Helper (PS)","NO","0","21-100-01","18,555,210","0","46,797,738","0","0","1,640,671","4,230,071","71,223,690","3,561,185","1,168,978","2,392,206","68,831,484","0","68,831,484","63,000,000","5,831,484","5,831,484","0","0","0","Pegawai Baru","092261544434000","Heri Susanto","07/Dec/20"
"2019090091","PON276","09","2020","0","0","01","09","91.204.166.2-915.000","5.2031631128403E+15","Lalu Ihsan Muliadi","Dsn. Batu Berkong, RT.005/RW.003, Des. Sekongkang Bawah, Kec. Sekongkang KSB-NTB","L","K1","0","General Helper (PS)","NO","0","21-100-01","18,989,250","0","40,183,566","0","0","1,640,671","5,541,480","66,354,967","3,317,748","1,168,978","2,148,770","64,206,197","0","64,206,197","63,000,000","1,206,197","1,206,197","0","0","0","Pegawai Baru","092261544434000","Heri Susanto","07/Dec/20"
"2018120505","PON251","08","2020","0","0","01","08","0","5.20316141192E+15","Lalu Rumiwang Syam","None","L","K1","0","General Helper (PS)","NO","0","21-100-01","17,904,150","0","46,123,480","0","0","1,458,374","7,519,743","73,005,748","3,650,287","1,039,092","2,611,196","70,394,552","0","70,394,552","63,000,000","7,394,552","7,394,552","0","0","0","Pegawai Baru","092261544434000","Heri Susanto","07/Dec/20"
"2019040348","PON247","10","2020","0","0","01","10","94.509.811.9-913.000","5.2030215097E+15","Lalu Sunardi","None","L","TK0","0","Driver (PS)","NO","0","21-100-01","22,787,100","0","62,763,336","0","0","1,822,968","10,140,260","97,513,664","4,875,683","1,298,865","3,576,818","93,936,845","0","93,936,845","54,000,000","39,936,845","39,936,845","0","0","0","Pegawai Baru","092261544434000","Heri Susanto","07/Dec/20"
"2017103075","PON058","10","2020","0","0","01","10","55.330.072.4-655.000","3.50603130593E+15","Lukman Hadi","none","L","TK0","0","Driller I (PS)","NO","0","21-100-01","53,369,695","0","83,433,016","0","0","4,352,480","17,953,980","159,109,171","6,000,000","3,101,142","2,898,858","156,210,313","0","156,210,313","54,000,000","102,210,313","102,210,313","0","0","0","Pegawai Baru","092261544434000","Heri Susanto","07/Dec/20"
"2020030126","PON381","10","2020","0","0","03","12","94.991.835.3-325.000","1.80612050287E+15","M. Andin Barudin","None","L","K2","0","Driller (PS)","NO","0","21-100-01","45,744,762","0","113,569,479","0","0","3,891,200","8,158,027","171,363,468","6,000,000","2,772,480","3,227,520","168,135,948","0","168,135,948","67,500,000","100,635,948","100,635,948","0","0","0","Pegawai Baru","092261544434000","Heri Susanto","07/Dec/20"
"2017103079","PON090","08","2020","0","0","01","08","58.998.016.8-953.000","7.37108050379E+15","M. Rusydi","Jl. Budi Utomo RT. 09/02, Koperapoka, Mimika Baru","L","K2","0","Asst. Driller (PS)","NO","0","21-100-01","40,156,810","0","69,878,689","0","0","3,481,984","14,825,635","128,343,117","6,000,000","2,480,914","3,519,086","124,824,031","0","124,824,031","67,500,000","57,324,031","57,324,031","0","0","0","Pegawai Baru","092261544434000","Heri Susanto","07/Dec/20"
"2019040346","PON250","08","2020","0","0","01","08","0","5.20704311272E+15","M. Saleh Boro","None","L","K3","0","General Helper (PS)","NO","0","21-100-01","17,904,150","0","47,888,493","0","0","1,458,374","7,519,743","74,770,760","3,738,538","1,039,092","2,699,446","72,071,314","0","72,071,314","72,000,000","71,314","71,314","0","0","0","Pegawai Baru","092261544434000","Heri Susanto","07/Dec/20"
"2020020037","PON357","10","2020","0","0","01","10","84.814.896.1-913.000","5.20708010785E+15","M. Syarifuddin","None","L","K3","0","General Helper (PS)","NO","0","21-100-01","20,725,410","0","48,215,419","0","0","1,822,968","3,344,710","74,108,507","3,705,425","1,298,865","2,406,561","71,701,946","0","71,701,946","72,000,000","0","0","0","0","0","Pegawai Baru","092261544434000","Heri Susanto","07/Dec/20"
"2017060555","PON355","10","2020","0","0","01","10","None","5.20704311268E+15","M. Yasin","Ds.Sekongkang Atas.Rt.04/Rw.02","L","K2","0","Driller Assistant (PS)","NO","0","21-100-01","22,738,095","0","38,621,387","0","0","2,000,000","6,544,521","69,904,003","3,495,200","1,425,000","2,070,200","67,833,803","0","67,833,803","67,500,000","333,803","333,803","0","0","0","Pegawai Baru","092261544434000","Heri Susanto","07/Dec/20"
"2020010209","PON342","10","2020","0","0","01","10","None","5.20704010179E+15","M. Zainuddin S","None","L","K3","0","General Helper (PS)","NO","0","21-100-01","20,833,920","0","40,122,453","0","0","1,822,968","5,977,082","68,756,423","3,437,821","1,298,865","2,138,956","66,617,467","0","66,617,467","72,000,000","0","0","0","0","0","Pegawai Baru","092261544434000","Heri Susanto","07/Dec/20"
"2018040057","PON097","10","2020","0","0","01","10","84.982.772.0-913.000","5.2040803028E+15","Mahfud","None","L","K2","0","Driller 1-1 (PS)","NO","0","21-100-01","48,004,000","0","108,924,219","0","0","3,840,320","18,601,550","179,370,089","6,000,000","2,736,228","3,263,772","176,106,317","0","176,106,317","67,500,000","108,606,317","108,606,317","0","0","0","Pegawai Baru","092261544434000","Heri Susanto","07/Dec/20"
"2017060227","PON023","08","2020","0","0","01","08","15.963.670.3-953.000","9.5207070983552E+14","Marwal Parman Situmorang","None","L","K3","0","Driller I (PS)","NO","0","21-100-01","43,865,800","0","98,796,163","0","0","3,755,136","10,121,265","156,538,364","6,000,000","2,675,534","3,324,466","153,213,898","0","153,213,898","72,000,000","81,213,898","81,213,898","0","0","0","Pegawai Baru","092261544434000","Heri Susanto","07/Dec/20"
"2017060229","PON259","12","2020","0","0","01","12","81.802.184.2-601.000","3.52212311271E+15","Matrum","None","L","K2","0","Driller (PS)","NO","0","21-100-01","60,800,000","0","123,445,086","0","0","4,864,000","20,064,000","209,173,086","6,000,000","3,465,600","2,534,400","206,638,686","0","206,638,686","67,500,000","139,138,686","139,138,686","0","0","0","Pegawai Baru","092261544434000","Heri Susanto","07/Dec/20"
"2017060230","PON021","12","2020","0","0","01","12","47.831.526.0-821.000","7.10705021082E+15","Moudy Ruland Monigir","Jaga III, Kel. Betelen Kec. Tombatu Minah, Minahasa ","L","K2","0","Asst. Driller (PS)","NO","0","21-100-01","58,674,000","0","113,040,718","0","0","4,693,920","13,495,020","189,903,658","6,000,000","3,344,418","2,655,582","187,248,076","0","187,248,076","67,500,000","119,748,076","119,748,076","0","0","0","Pegawai Baru","092261544434000","Heri Susanto","07/Dec/20"
"2019040361","PON049","12","2020","0","0","01","12","0","5.20428291191E+15","Muazzin","None","L","TK0","0","Asst. Driller (PS)","NO","0","21-100-01","25,000,000","0","60,585,260","0","0","2,000,000","6,812,500","94,397,760","4,719,888","1,425,000","3,294,888","91,102,872","0","91,102,872","54,000,000","37,102,872","37,102,872","0","0","0","Pegawai Baru","092261544434000","Heri Susanto","07/Dec/20"
"2020030084","PON378","07","2020","0","0","03","09","84.771.089.4-913.000","5.20704291094E+15","Muhammad Akbar","None","L","TK0","0","General Helper (PS)","NO","0","21-100-01","13,889,280","0","36,233,361","0","0","1,276,078","3,094,988","54,493,706","2,724,685","909,205","1,815,480","52,678,226","0","52,678,226","54,000,000","0","0","0","0","0","Pegawai Baru","092261544434000","Heri Susanto","07/Dec/20"
"2019120033","PON287","08","2020","0","0","01","08","92.978.951.9-913.000","5.20708270395E+15","Muhammad Hasbullah","None","L","TK0","0","General Helper (PS)","NO","0","21-100-01","17,578,620","0","48,013,625","0","0","1,458,374","5,060,765","72,111,384","3,605,569","1,039,092","2,566,477","69,544,906","0","69,544,906","54,000,000","15,544,906","15,544,906","0","0","0","Pegawai Baru","092261544434000","Heri Susanto","07/Dec/20"
"2019040340","PON244","10","2020","0","0","01","10","0","5.20708311282E+15","Muhammad Rofi i","None","L","K3","0","General Helper (PS)","NO","0","21-100-01","22,787,100","0","59,299,171","0","0","1,822,968","10,140,260","94,049,499","4,702,475","1,298,865","3,403,610","90,645,888","0","90,645,888","72,000,000","18,645,888","18,645,888","0","0","0","Pegawai Baru","092261544434000","Heri Susanto","07/Dec/20"
"2020010213","PON346","07","2020","0","0","01","07","92.655.658.0-913.000","5.20704010175E+15","Muhammad Zainal Abidin","None","L","K2","0","General Helper (PS)","NO","0","21-100-01","12,478,650","0","30,748,110","0","0","1,093,781","2,046,307","46,366,848","2,318,342","779,319","1,539,024","44,827,825","0","44,827,825","67,500,000","0","0","0","0","0","Pegawai Baru","092261544434000","Heri Susanto","07/Dec/20"
"2018120498","PON273","09","2020","0","0","01","09","92.511.187.4-913.000","5.20708090291E+15","Muhiddin","Desa Benete RT.004/RW.002 Des. Benete Kec.Maluk Kab. Sumbawa Barat-NTB","L","TK0","0","General Helper (PS)","NO","0","21-100-01","7,595,700","0","18,784,757","0","0","729,187","3,930,775","31,040,419","1,552,021","519,546","1,032,475","30,007,944","0","30,007,944","54,000,000","0","0","0","0","0","Pegawai Baru","092261544434000","Heri Susanto","07/Dec/20"
"2020010210","PON343","10","2020","0","0","01","10","None","5.2070807098E+15","Mukhrifin Urief","None","L","K3","0","General Helper (PS)","NO","0","21-100-01","20,725,410","0","44,718,073","0","0","1,822,968","3,400,897","70,667,347","3,533,367","1,298,865","2,234,503","68,432,845","0","68,432,845","72,000,000","0","0","0","0","0","Pegawai Baru","092261544434000","Heri Susanto","07/Dec/20"
"2019040355","PON085","08","2020","0","0","01","08","98.195.179.1-913.000","5.20427120475E+15","Musa Arifin","None","L","K2","0","SHE Reps (PS)","NO","0","21-100-01","20,000,000","0","43,796,243","0","0","1,600,000","8,250,000","73,646,243","3,682,312","1,140,000","2,542,312","71,103,931","0","71,103,931","67,500,000","3,603,931","3,603,931","0","0","0","Pegawai Baru","092261544434000","Heri Susanto","07/Dec/20"
"2019040332","PON165","12","2020","0","0","01","12","0","5.20427120573E+15","Mustambil","None","L","K2","0","Driller 1-1 (PS)","NO","0","21-100-01","48,004,000","0","108,091,780","0","0","3,840,320","13,081,090","173,017,190","6,000,000","2,736,228","3,263,772","169,753,418","0","169,753,418","67,500,000","102,253,418","102,253,418","0","0","0","Pegawai Baru","092261544434000","Heri Susanto","07/Dec/20"
"2020030081","PON379","07","2020","0","0","03","09","48.127.824.0-913.000","5.20704311277E+15","Najamuddin","None","L","K3","0","General Helper (PS)","NO","0","21-100-01","13,889,280","0","36,108,229","0","0","1,276,078","3,094,988","54,368,574","2,718,429","909,205","1,809,223","52,559,351","0","52,559,351","72,000,000","0","0","0","0","0","Pegawai Baru","092261544434000","Heri Susanto","07/Dec/20"
"2019120096","PON366","08","2020","0","0","01","08","91.173.109.9-913.000","5.20704160993E+15","Nalem","None","L","K2","0","General Helper (PS)","NO","0","21-100-01","13,346,730","0","37,003,369","0","0","1,276,078","3,201,120","54,827,296","2,741,365","909,205","1,832,160","52,995,136","0","52,995,136","67,500,000","0","0","0","0","0","Pegawai Baru","092261544434000","Heri Susanto","07/Dec/20"
"2017060233","PON008","11","2020","0","0","01","11","16.739.461.8-953.000","7.10601261168E+15","Noldy Lang","Jl. Amoko RT. 07, Koperapoka, Mimika Baru ","L","K3","0","Driller I (PS)","NO","0","21-100-01","54,406,000","0","89,266,723","0","0","4,352,480","9,385,035","157,410,238","6,000,000","3,101,142","2,898,858","154,511,380","0","154,511,380","72,000,000","82,511,380","82,511,380","0","0","0","Pegawai Baru","092261544434000","Heri Susanto","07/Dec/20"
"2020010165","PON335","11","2020","0","0","01","11","None","5.20704160571E+15","Nurmain","None","L","K1","0","Driller (PS)","NO","0","21-100-01","38,631,790","0","101,720,669","0","0","3,456,288","12,776,955","156,585,702","6,000,000","2,462,605","3,537,395","153,048,307","0","153,048,307","63,000,000","90,048,307","90,048,307","0","0","0","Pegawai Baru","092261544434000","Heri Susanto","07/Dec/20"
"2019090087","PON275","09","2020","0","0","01","09","93.112.338.4-913.000","5.20702100492E+15","Panji Ahyan Saputra","Lingk. Dalam, RT.001/RW.001, Kel. Dalam, Kec. Taliwang KSB-NTB","L","K1","0","General Helper (PS)","NO","0","21-100-01","21,267,960","0","46,839,248","0","0","1,822,968","5,541,480","75,471,656","3,773,583","1,298,865","2,474,718","72,996,938","0","72,996,938","63,000,000","9,996,938","9,996,938","0","0","0","Pegawai Baru","092261544434000","Heri Susanto","07/Dec/20"
"2020010140","PON325","10","2020","0","0","01","10","47.852.943.1-913.000","5.20708080677E+15","Pawanari","None","L","K3","0","Welder (PS)","NO","0","21-100-01","29,571,429","0","77,296,242","0","0","2,400,000","6,301,027","115,568,697","5,778,435","1,710,000","4,068,435","111,500,263","0","111,500,263","72,000,000","39,500,263","39,500,263","0","0","0","Pegawai Baru","092261544434000","Heri Susanto","07/Dec/20"
"2019120030","PON293","08","2020","0","0","01","08","94.357.055.6-913.000","5.20701291186E+15","Pedi Pranata","None","L","K2","0","General Helper (PS)","NO","0","21-100-01","19,857,330","0","50,574,212","0","0","1,640,671","5,060,765","77,132,978","3,856,649","1,168,978","2,687,671","74,445,307","0","74,445,307","67,500,000","6,945,307","6,945,307","0","0","0","Pegawai Baru","092261544434000","Heri Susanto","07/Dec/20"
"2019120387","PON299","12","2020","0","0","01","12","66.026.442.5-629.000","3.50416190484E+15","Pendi Irawan","None","L","K1","0","Logistic (PS)","NO","0","21-100-01","22,250,970","0","49,316,462","0","0","1,780,078","4,876,848","78,224,357","3,911,218","1,268,305","2,642,913","75,581,444","0","75,581,444","63,000,000","12,581,444","12,581,444","0","0","0","Pegawai Baru","092261544434000","Heri Susanto","07/Dec/20"
"2019120337","PON367","10","2020","0","0","01","10","None","5.2070316079E+15","Perdianto","None","L","K1","0","General Helper (PS)","NO","0","21-100-01","18,772,230","0","52,214,093","0","0","1,640,671","4,948,131","77,575,125","3,878,756","1,168,978","2,709,778","74,865,347","0","74,865,347","63,000,000","11,865,347","11,865,347","0","0","0","Pegawai Baru","092261544434000","Heri Susanto","07/Dec/20"
"2019040357","PON249","10","2020","0","0","01","10","0","5.20701051087E+15","Perwira Irwansyah","None","L","K3","0","General Helper (PS)","NO","0","21-100-01","22,787,100","0","59,174,040","0","0","1,822,968","10,140,260","93,924,367","4,696,218","1,298,865","3,397,354","90,527,013","0","90,527,013","72,000,000","18,527,013","18,527,013","0","0","0","Pegawai Baru","092261544434000","Heri Susanto","07/Dec/20"
"2017060235","","03","2020","0","0","01","03","77.374.158.2-035.000","9.10901280275E+15","Petrus Mande Toding","None","L","K2","0","Driller II (PS)","NO","0","21-100-01","18,242,400","0","24,991,034","0","0","1,459,392","0","44,692,826","2,234,641","1,039,817","1,194,824","43,498,001","0","43,498,001","67,500,000","0","0","0","0","0","Pegawai Baru","092261544434000","Heri Susanto","07/Dec/20"
"2019040337","PON253","09","2020","0","0","01","09","73.623.849.4-913.000","5.20426080492E+15","Raehanol Fitranuddin","None","L","K0","0","General Helper (PS)","NO","0","21-100-01","20,399,880","0","49,143,560","0","0","1,640,671","10,140,260","81,324,371","4,066,219","1,168,978","2,897,240","78,427,131","0","78,427,131","58,500,000","19,927,131","19,927,131","0","0","0","Pegawai Baru","092261544434000","Heri Susanto","07/Dec/20"
"2018090473","PON339","10","2020","0","0","01","10","15.563.594.9-721.000","6.47105020382E+15","Rahmad Taufik","JL.PENGGALANG KEL.DAMAI KEC.BALIKPAPAN ","L","K2","0","SHE Reps (PS)","NO","0","21-100-01","43,657,143","0","91,978,612","0","0","3,840,000","9,818,630","149,294,385","6,000,000","2,736,000","3,264,000","146,030,385","0","146,030,385","67,500,000","78,530,385","78,530,385","0","0","0","Pegawai Baru","092261544434000","Heri Susanto","07/Dec/20"
"2018090259","PON175","11","2020","0","0","01","11","64.229.878.0-953.000","9.10901170277E+15","Reginaldus Dindu Dino","None","L","K3","0","Surveyor & Administrator (PS)","NO","0","21-100-01","31,112,000","0","69,111,800","0","0","2,488,960","5,366,820","108,079,580","5,403,979","1,773,384","3,630,595","104,448,985","0","104,448,985","72,000,000","32,448,985","32,448,985","0","0","0","Pegawai Baru","092261544434000","Heri Susanto","07/Dec/20"
"2020020089","PON331","10","2020","0","0","01","10","93.859.821.6-526.000","3.37205300998E+15","Rekyan Yudatama","None","L","TK0","0","Surveyor (PS)","NO","0","21-100-01","19,814,517","0","41,245,247","0","0","1,585,161","4,660,332","67,305,257","3,365,263","1,129,427","2,235,835","65,069,422","0","65,069,422","54,000,000","11,069,422","11,069,422","0","0","0","Pegawai Baru","092261544434000","Heri Susanto","07/Dec/20"
"2020010167","PON330","09","2020","0","0","01","09","76.193.123.7-806.000","7.30201150574E+15","Risman","None","L","K3","0","Logistic Officer (PS)","NO","0","21-100-01","46,171,429","0","82,002,311","0","0","3,840,000","9,109,041","141,122,781","6,000,000","2,736,000","3,264,000","137,858,781","0","137,858,781","72,000,000","65,858,781","65,858,781","0","0","0","Pegawai Baru","092261544434000","Heri Susanto","07/Dec/20"
"2018110322","PON212","06","2020","0","0","01","06","57.664.823.0-117.000","1.21111220184E+15","Ronson Pasaribu","None","L","K0","0","Driller (PS)","NO","0","21-100-01","35,032,381","0","54,421,272","0","0","2,918,400","0","92,372,053","4,618,603","2,079,360","2,539,243","89,832,810","0","89,832,810","58,500,000","31,332,810","31,332,810","0","0","0","Pegawai Baru","092261544434000","Heri Susanto","07/Dec/20"
"2019090090","PON280","09","2020","0","0","01","09","0","5.20702311279E+15","Rosidin","Dusun Bagsal, RT.005/RW.002, Des. Lab. Lalar, Kec. Taliwang KSB-NTB","L","K2","0","General Helper (PS)","NO","0","21-100-01","18,989,250","0","46,524,441","0","0","1,640,671","5,541,480","72,695,842","3,634,792","1,168,978","2,465,814","70,230,028","0","70,230,028","67,500,000","2,730,028","2,730,028","0","0","0","Pegawai Baru","092261544434000","Heri Susanto","07/Dec/20"
"2018120495","PON362","07","2020","0","0","02","08","None","5.20708010892E+15","Rudini","Dusun Tatar RT.005/RW.003 Des. Benete Kec.Maluk Kab. Sumbawa Barat - NTB","L","K1","0","General Helper (PS)","NO","0","21-100-01","13,346,730","0","33,098,213","0","0","1,276,078","3,201,120","50,922,140","2,546,107","909,205","1,636,902","49,285,238","0","49,285,238","63,000,000","0","0","0","0","0","Pegawai Baru","092261544434000","Heri Susanto","07/Dec/20"
"2020020036","PON354","10","2020","0","0","01","10","66.440.117.1-915.000","5.20300290672E+15","Rusdan Efendi","None","L","K2","0","Driller (PS)","NO","0","21-100-01","43,660,781","0","79,384,352","0","0","3,840,320","12,566,527","139,451,980","6,000,000","2,736,228","3,263,772","136,188,208","0","136,188,208","67,500,000","68,688,208","68,688,208","0","0","0","Pegawai Baru","092261544434000","Heri Susanto","07/Dec/20"
"2019040330","","03","2020","0","0","01","03","59.542.473.0-821.000","7.10607280681E+15","Sa ban Bawuhas","None","L","K2","0","Logistic (PS)","NO","0","21-100-01","14,400,000","0","26,136,416","0","0","1,152,000","5,520,000","47,208,416","2,360,421","820,800","1,539,621","45,668,795","0","45,668,795","67,500,000","0","0","0","0","0","Pegawai Baru","092261544434000","Heri Susanto","07/Dec/20"
"2020040047","PON385","06","2020","0","0","04","09","49.120.740.3-913.000","5.2070123068E+15","Saaludin","None","L","K3","0","Driver (PS)","NO","0","21-100-01","13,997,790","0","40,333,859","0","0","1,276,078","2,383,541","57,991,267","2,899,563","909,205","1,990,358","56,000,909","0","56,000,909","72,000,000","0","0","0","0","0","Pegawai Baru","092261544434000","Heri Susanto","07/Dec/20"
"2019090092","PON274","05","2020","0","0","01","05","92.475.783.4-913.000","5.2070110069E+15","Safaruddin","Dsn. Jelenga RT.010/RW.005, Des. Beru Kec. Jereweh KSB-NTB","L","K2","0","General Helper (PS)","NO","0","21-100-01","10,199,940","0","23,432,658","0","0","911,484","1,610,705","36,154,787","1,807,739","649,432","1,158,307","34,996,480","0","34,996,480","67,500,000","0","0","0","0","0","Pegawai Baru","092261544434000","Heri Susanto","07/Dec/20"
"2019080145","PON266","12","2020","0","0","01","12","69.575.799.7-305.000","1.90604291172E+15","Samardin","None","L","K2","0","Driller (PS)","NO","0","21-100-01","60,800,000","0","103,139,537","0","0","4,864,000","16,301,479","185,105,016","6,000,000","3,465,600","2,534,400","182,570,616","0","182,570,616","67,500,000","115,070,616","115,070,616","0","0","0","Pegawai Baru","092261544434000","Heri Susanto","07/Dec/20"
"2018090274","PON185","12","2020","0","0","01","12","44.453.375.6-085.000","3.17306250165E+15","Samsul Kamal","None","L","K3","0","Mechanic (PS)","NO","0","21-100-01","60,800,000","0","107,313,757","0","0","4,864,000","16,568,000","189,545,757","6,000,000","3,465,600","2,534,400","187,011,357","0","187,011,357","72,000,000","115,011,357","115,011,357","0","0","0","Pegawai Baru","092261544434000","Heri Susanto","07/Dec/20"
"2019120392","PON365","08","2020","0","0","01","08","None","5.2030831129501E+15","Sapriadi","None","L","K1","0","General Helper (PS)","NO","0","21-100-01","13,346,730","0","34,948,579","0","0","1,276,078","3,201,120","52,772,506","2,638,625","909,205","1,729,420","51,043,086","0","51,043,086","63,000,000","0","0","0","0","0","Pegawai Baru","092261544434000","Heri Susanto","07/Dec/20"
"2020030082","PON380","07","2020","0","0","03","09","94.695.415.3-915.000","5.2030501078907E+15","Saprudin","None","L","TK0","0","General Helper (PS)","NO","0","21-100-01","13,563,750","0","34,870,146","0","0","1,276,078","474,471","50,184,445","2,509,222","909,205","1,600,017","48,584,428","0","48,584,428","54,000,000","0","0","0","0","0","Pegawai Baru","092261544434000","Heri Susanto","07/Dec/20"
"2018040071","PON173","06","2020","0","0","01","06","59.786.140.0-523.000","3.30512160885E+15","Solikhin","None","L","K1","0","Mechanic (PS)","NO","0","21-100-01","30,508,133","0","53,608,679","0","0","2,662,528","8,944,430","95,723,771","4,786,189","1,897,051","2,889,137","92,834,633","0","92,834,633","63,000,000","29,834,633","29,834,633","0","0","0","Pegawai Baru","092261544434000","Heri Susanto","07/Dec/20"
"2017060375","PON011","11","2020","0","0","01","11","77.374.158.2-035.000","3.17305140368E+15","Suha Endra","Jl. Qrisdoren I No. 36B RT.07/10, Sukabumi Utara, Kebon Jeruk, Jakarta Barat","L","K2","0","Logistic Officer (PS)","NO","0","21-100-01","58,674,000","0","140,851,515","0","0","4,693,920","12,614,910","216,834,345","6,000,000","3,344,418","2,655,582","214,178,763","0","214,178,763","67,500,000","146,678,763","146,678,763","0","0","0","Pegawai Baru","092261544434000","Heri Susanto","07/Dec/20"
"2019040342","PON050","09","2020","0","0","01","09","0","5.20410200986E+15","Suhadi","None","L","K2","0","Asst. Support (PS)","NO","0","21-100-01","26,746,000","0","68,602,520","0","0","2,139,680","7,147,150","104,635,350","5,231,768","1,524,522","3,707,246","100,928,105","0","100,928,105","67,500,000","33,428,105","33,428,105","0","0","0","Pegawai Baru","092261544434000","Heri Susanto","07/Dec/20"
"2019010572","PON230","11","2020","0","0","01","11","80.916.302.5-118.000","1.20302200482E+15","Sukamdi Sihombing","None","L","K2","0","Driller (PS)","NO","0","21-100-01","60,800,000","0","138,328,786","0","0","4,864,000","20,064,000","224,056,786","6,000,000","3,465,600","2,534,400","221,522,386","0","221,522,386","67,500,000","154,022,386","154,022,386","0","0","0","Pegawai Baru","092261544434000","Heri Susanto","07/Dec/20"
"2019040344","PON079","12","2020","0","0","01","12","0","5.2042703099E+15","Sukma Irawan","None","L","TK0","0","Driller (PS)","NO","0","21-100-01","27,328,000","0","63,124,381","0","0","2,186,240","6,812,500","99,451,121","4,972,556","1,557,696","3,414,860","96,036,261","0","96,036,261","54,000,000","42,036,261","42,036,261","0","0","0","Pegawai Baru","092261544434000","Heri Susanto","07/Dec/20"
"2020010141","PON323","10","2020","0","0","01","10","91.501.776.8-913.000","5.20708270396E+15","Sukma Irwansyah","None","L","TK0","0","HR Admin (PS)","NO","0","21-100-01","23,789,310","0","58,932,625","0","0","1,929,187","6,478,055","91,129,177","4,556,459","1,374,546","3,181,913","87,947,264","0","87,947,264","54,000,000","33,947,264","33,947,264","0","0","0","Pegawai Baru","092261544434000","Heri Susanto","07/Dec/20"
"2020010162","PON360","05","2020","0","0","01","05","78.005.137.1-911.000","5.20201051279E+15","Sukma Rizal","None","L","K1","0","SHE Reps (PS)","NO","0","21-100-01","14,171,429","0","33,244,075","0","0","1,536,000","4,140,822","53,092,325","2,654,616","1,094,400","1,560,216","51,532,109","0","51,532,109","63,000,000","0","0","0","0","0","Pegawai Baru","092261544434000","Heri Susanto","07/Dec/20"
"2020100012","","04","2020","0","0","09","12","69.626.613.9-912.000","5.20708250271E+15","Sumarji","None","L","K1","0","Operator Telehandler (PS)","NO","0","21-100-01","3,200,000","0","5,225,434","0","0","256,000","0","8,681,434","434,072","182,400","251,672","8,429,762","0","8,429,762","63,000,000","0","0","0","0","0","Pegawai Baru","092261544434000","Heri Susanto","07/Dec/20"
"2017060244","PON013","11","2020","0","0","01","11","48.703.609.7-953.000","9.10901221072E+15","Suminto","Jl. Anggur Timika Jaya - Mimika Baru, Mimika - Papua","L","K3","0","Driller II (PS)","NO","0","21-100-01","60,808,000","0","130,737,199","0","0","4,864,640","16,570,180","212,980,019","6,000,000","3,466,056","2,533,944","210,446,075","0","210,446,075","72,000,000","138,446,075","138,446,075","0","0","0","Pegawai Baru","092261544434000","Heri Susanto","07/Dec/20"
"2019020037","PON327","10","2020","0","0","01","10","47.814.980.0-913.000","5.27104170872E+15","Supanji","DSN.S.JORONG  RT/RW : 007/003  KEL.TONGO  KEC.SEKONGKANG  KQB.SUMBAWA BARAT","L","K3","0","Mechanic (PS)","NO","0","21-100-01","46,857,143","0","100,716,763","0","0","3,840,000","10,081,644","161,495,550","6,000,000","2,736,000","3,264,000","158,231,550","0","158,231,550","72,000,000","86,231,550","86,231,550","0","0","0","Pegawai Baru","092261544434000","Heri Susanto","07/Dec/20"
"2017060245","PON014","09","2020","0","0","01","09","87.416.865.1-724.000","7.31107070782E+15","Suparman","Jl. Kapital RW. 04, Sangatta Utara -Sangatta Kutai Timur ","L","K2","0","Driller I (PS)","NO","0","21-100-01","50,571,400","0","110,819,245","0","0","4,224,528","17,113,250","182,728,423","6,000,000","3,009,976","2,990,024","179,738,399","0","179,738,399","67,500,000","112,238,399","112,238,399","0","0","0","Pegawai Baru","092261544434000","Heri Susanto","07/Dec/20"
"2018100986","PON271","11","2020","0","0","01","11","98.399.496.3-443.000","3.2050510180006E+14","Supriatna","None","L","K1","0","Mechanic (PS)","NO","0","21-100-01","54,400,000","0","125,399,884","0","0","4,352,000","16,700,055","200,851,939","6,000,000","3,100,800","2,899,200","197,952,739","0","197,952,739","63,000,000","134,952,739","134,952,739","0","0","0","Pegawai Baru","092261544434000","Heri Susanto","07/Dec/20"
"2019090026","PON272","02","2020","0","0","01","02","85.863.681.4-822.000","7.57105121268E+15","Suratman Suratinoyo","None","L","K3","0","Mechanic (PS)","NO","0","21-100-01","18,240,000","0","37,903,353","0","0","1,459,200","6,992,000","64,594,553","3,229,728","1,039,680","2,190,048","62,404,505","0","62,404,505","72,000,000","0","0","0","0","0","Pegawai Baru","092261544434000","Heri Susanto","07/Dec/20"
"2018110679","PON156","12","2020","0","0","01","12","88.999.230.1-521.000","3.30222041084E+15","Suratmantoro","Kampung Baru .RT. 07, Badak Baru - Muara Badak Kutai Kartanegara","L","K2","0","Driller (PS)","NO","0","21-100-01","54,406,000","0","109,519,592","0","0","4,352,480","17,953,980","186,232,052","6,000,000","3,101,142","2,898,858","183,333,194","0","183,333,194","67,500,000","115,833,194","115,833,194","0","0","0","Pegawai Baru","092261544434000","Heri Susanto","07/Dec/20"
"2017060247","PON015","08","2020","0","0","01","08","88.925.633.5-728.000","6.4020504057E+14","Suratno","None","L","K1","0","Driller I (PS)","NO","0","21-100-01","40,674,962","0","67,944,603","0","0","3,481,984","14,825,635","126,927,184","6,000,000","2,480,914","3,519,086","123,408,097","0","123,408,097","63,000,000","60,408,097","60,408,097","0","0","0","Pegawai Baru","092261544434000","Heri Susanto","07/Dec/20"
"2020010138","PON304","10","2020","0","0","01","10","14.076.264.2-913.000","5.20418150776E+15","Syafruddin Arief Hidayat","None","L","K3","0","Welder (PS)","NO","0","21-100-01","27,142,857","0","53,372,281","0","0","2,400,000","6,301,027","89,216,165","4,460,808","1,710,000","2,750,808","86,465,357","0","86,465,357","72,000,000","14,465,357","14,465,357","0","0","0","Pegawai Baru","092261544434000","Heri Susanto","07/Dec/20"
"2019040341","PON248","08","2020","0","0","01","08","0","5.20704150484E+15","Syamsuddin","None","L","K2","0","General Helper (PS)","NO","0","21-100-01","17,904,150","0","47,308,936","0","0","1,458,374","7,519,743","74,191,203","3,709,560","1,039,092","2,670,468","71,520,735","0","71,520,735","67,500,000","4,020,735","4,020,735","0","0","0","Pegawai Baru","092261544434000","Heri Susanto","07/Dec/20"
"2019040364","PON103","12","2020","0","0","01","12","98.195.195.7-913.000","5.20410181176E+15","Syamsul Hidayat","None","L","K2","0","Asst. Welder (PS)","NO","0","21-100-01","48,000,000","0","112,065,368","0","0","3,840,000","13,080,000","176,985,368","6,000,000","2,736,000","3,264,000","173,721,368","0","173,721,368","67,500,000","106,221,368","106,221,368","0","0","0","Pegawai Baru","092261544434000","Heri Susanto","07/Dec/20"
"2017070531","PON055","10","2020","0","0","01","10","73.276.721.5-823.000","7.1720610037E+15","Tahyal Canga","Lingkungan II, Girian Weru, Dua Girian, Bitung ","L","K3","0","Driller II (PS)","NO","0","21-100-01","60,808,000","0","112,266,331","0","0","4,864,640","20,066,640","198,005,611","6,000,000","3,466,056","2,533,944","195,471,667","0","195,471,667","72,000,000","123,471,667","123,471,667","0","0","0","Pegawai Baru","092261544434000","Heri Susanto","07/Dec/20"
"2020020041","PON353","10","2020","0","0","01","10","92.507.882.6-913.000","5.20701080694E+15","Tino Feri Ananta","None","L","TK0","0","General Helper (PS)","NO","0","21-100-01","20,725,410","0","46,351,619","0","0","1,822,968","5,965,226","74,865,223","3,743,261","1,298,865","2,444,396","72,420,827","0","72,420,827","54,000,000","18,420,827","18,420,827","0","0","0","Pegawai Baru","092261544434000","Heri Susanto","07/Dec/20"
"2018090384","PON336","09","2020","0","0","01","09","69.894.275.2-953.000","7.17303250971E+15","Tommy Richard Walenta","JL MOROTAI TAMA PERUM PULUBALA","L","K3","0","Mechanic Drill & Shovel (PS)","NO","0","21-100-01","43,714,286","0","91,379,190","0","0","3,888,000","8,280,000","147,261,476","6,000,000","2,770,200","3,229,800","144,031,676","0","144,031,676","72,000,000","72,031,676","72,031,676","0","0","0","Pegawai Baru","092261544434000","Heri Susanto","07/Dec/20"
"2019040367","PON118","12","2020","0","0","01","12","0","5.20427260291E+15","Tri Murdiono","None","L","TK0","0","Asst. Support (PS)","NO","0","21-100-01","25,000,000","0","66,726,879","0","0","2,000,000","6,812,500","100,539,379","5,026,969","1,425,000","3,601,969","96,937,410","0","96,937,410","54,000,000","42,937,410","42,937,410","0","0","0","Pegawai Baru","092261544434000","Heri Susanto","07/Dec/20"
"2019040347","PON075","12","2020","0","0","01","12","98.195.190.8-913.000","5.20427030785E+15","Usman","None","L","K2","0","Driller (PS)","NO","0","21-100-01","27,328,000","0","63,629,399","0","0","2,186,240","6,812,500","99,956,139","4,997,807","1,557,696","3,440,111","96,516,028","0","96,516,028","67,500,000","29,016,028","29,016,028","0","0","0","Pegawai Baru","092261544434000","Heri Susanto","07/Dec/20"
"2019090088","PON278","09","2020","0","0","01","09","0","5.20704301272E+15","Wahyu","Dsn. Barunut, RT.003/RW.002, Des. Tatar, Kec. Sekongkang KSB-NTB","L","K2","0","General Helper (PS)","NO","0","21-100-01","18,555,210","0","50,193,283","0","0","1,640,671","5,541,480","75,930,644","3,796,532","1,168,978","2,627,554","73,303,090","0","73,303,090","67,500,000","5,803,090","5,803,090","0","0","0","Pegawai Baru","092261544434000","Heri Susanto","07/Dec/20"
"2017080095","PON154","12","2020","0","0","01","12","87.551.916.7-525.000","3.3102525087E+15","Wardi","None","L","K2","0","Senior Driller (PS)","NO","0","21-100-01","60,808,000","0","121,967,491","0","0","4,864,640","20,066,640","207,706,771","6,000,000","3,466,056","2,533,944","205,172,827","0","205,172,827","67,500,000","137,672,827","137,672,827","0","0","0","Pegawai Baru","092261544434000","Heri Susanto","07/Dec/20"
"2019040352","PON072","09","2020","0","0","01","09","0","5.20411610489E+15","Wiwin Arfawansyah","None","L","K1","0","Asst. Driller (PS)","NO","0","21-100-01","22,500,000","0","51,751,444","0","0","1,800,000","6,812,500","82,863,944","4,143,197","1,282,500","2,860,697","80,003,247","0","80,003,247","63,000,000","17,003,247","17,003,247","0","0","0","Pegawai Baru","092261544434000","Heri Susanto","07/Dec/20"
"2020040048","PON384","06","2020","0","0","04","09","None","5.20408110887E+15","Yayat Zulkarnain","None","L","K1","0","Driver (PS)","NO","0","21-100-01","14,323,320","0","33,664,598","0","0","1,276,078","2,383,541","51,647,536","2,582,377","909,205","1,673,172","49,974,365","0","49,974,365","63,000,000","0","0","0","0","0","Pegawai Baru","092261544434000","Heri Susanto","07/Dec/20"
"2018040065","PON101","12","2020","0","0","01","12","46.023.769.4-627.000","3.51005140975E+15","Yoni Ali Mashuri","Jl. Arjuna Dsn. Sumberayu, RT. 01/03, Sumberberas, Muncar, Banyuwangi","L","K2","0","Mechanic 1-1 (PS)","NO","0","21-100-01","45,901,200","0","100,112,346","0","0","3,672,096","12,262,500","161,948,142","6,000,000","2,616,368","3,383,632","158,564,511","0","158,564,511","67,500,000","91,064,511","91,064,511","0","0","0","Pegawai Baru","092261544434000","Heri Susanto","07/Dec/20"
"2019120333","PON369","11","2020","0","0","01","11","85.532.402.6-913.000","5.20701190489E+15","Yunasril Amir","None","L","K1","0","General Helper (PS)","NO","0","21-100-01","15,842,460","0","46,162,996","0","0","1,458,374","3,201,120","66,664,949","3,333,247","1,039,092","2,294,156","64,370,794","0","64,370,794","63,000,000","1,370,794","1,370,794","0","0","0","Pegawai Baru","092261544434000","Heri Susanto","07/Dec/20"
"","","","","","","","","","","","","","","","","","","","","","","","","","","","","","","","","","","","","","","","","","",""
