PT. SANGATI SOERYA SEJAHTERA,,,,,,,,,,,,,,,,,,,,,,,,,,,,,,,,,,,,,,,,,,
Spt Tax - Pontil_Sumbawa,,,,,,,,,,,,,,,,,,,,,,,,,,,,,,,,,,,,,,,,,,
Period : 2020,,,,,,,,,,,,,,,,,,,,,,,,,,,,,,,,,,,,,,,,,,
,,,,,,,,,,,,,,,,,,,,,,,,,,,,,,,,,,,,,,,,,,
,,,,,,,,,,,,,,,,,,,,,,,,,,,,,,,,,,,,,,,,,,
BIODATA ID,NIE,MASA PAJAK,TAHUN PAJAK,PEMBETULAN,NOMOR BUKTI POTONG,MASA PEROLEHAN AWAL,MASA PEROLEHAN AKHIR,NPWP,NIK,NAMA,ALAMAT,GENDER,PTKP,JUMLAH TANGGUNGAN,JABATAN,WP LUAR NEGRI,KODE NEGARA,KODE PAJAK,UPAH ,TUNJANGAN PPH,TUNJANGAN LEMBUR,HONORARIUM,PREMI ASURANSI,NATURA,"THR, BONUS",JUMLAH BRUTO (1 SD 7),BIAYA JABATAN,IURAN PENSIUN,JUMLAH PENGURANGAN (9 SD 10),JUMLAH NETO (8-11),NETO MASA SEBELUMNYA,NETO (SETAHUN/DISETAHUNKAN),PTKP,PKP SETAHUN,PPH 21 ATAS PKP SETAHUN/DISETAHUNKAN,PPH 21 YANG TELAH DIPOTONG MASA SEBELUMNYA,PPH 21 TERUTANG,PPH 21 & PPH 26 YANG TELAH DIPOTONG/DILUNASI,STATUS PINDAH,NPWP PEMOTONG,NAMA PEMOTONG,TANGGAL BUKTI POTONG
,,,,,,,,,,,,,,,,,,,,,,,,,,,,,,,,,,,,,,,,,,
2019040360,PON081,12,2020,0,0,1,12,91.901.550.3-913.000,5.20E+15,A. Rahman,None,L,K1,0,Driller (PS),NO,0,21-100-01,"27,328,000","1,902,655","69,781,977",0,0,"2,186,240","6,812,500","108,011,372","5,400,569","1,557,696","6,958,265","101,053,108",0,"101,053,108","63,000,000","38,053,108","38,053,108",0,"1,902,655",0,Pegawai Baru,9.22615E+13,Heri Susanto,7-Dec-20
2020010143,PON328,10,2020,0,0,1,10,69.630.482.3-913.000,5.20E+15,Abdul Azis,None,L,K2,0,Driver (PS),NO,0,21-100-01,"20,833,920",0,"41,482,715",0,0,"1,822,968","6,096,330","70,235,933","3,511,797","1,298,865","2,212,932","68,023,001",0,"68,023,001","67,500,000","523,001","523,001",0,0,0,Pegawai Baru,9.22615E+13,Heri Susanto,7-Dec-20
2019080146,PON265,12,2020,0,0,1,12,14.554.930.9-953.000,9.11E+15,Abdul Rahman,None,L,K3,0,Mechanic (PS),NO,0,21-100-01,"54,406,000","11,700,845","107,393,638",0,0,"4,352,480","14,587,143","192,440,106","6,000,000","3,101,142","9,101,142","183,338,964",0,"183,338,964","72,000,000","111,338,964","111,338,964",0,"11,700,845",0,Pegawai Baru,9.22615E+13,Heri Susanto,7-Dec-20
