"PT. SANGATI SOERYA SEJAHTERA","","","","","","","","","","","","","","","","","","","","","","","","","","","","","","","","","","","","","","","","","",""
"Spt Tax - Pontil_Sumbawa","","","","","","","","","","","","","","","","","","","","","","","","","","","","","","","","","","","","","","","","","",""
"Period : 2020","","","","","","","","","","","","","","","","","","","","","","","","","","","","","","","","","","","","","","","","","",""
"","","","","","","","","","","","","","","","","","","","","","","","","","","","","","","","","","","","","","","","","","",""
"","","","","","","","","","","","","","","","","","","","","","","","","","","","","","","","","","","","","","","","","","",""
"BIODATA ID","NIE","MASA PAJAK","TAHUN PAJAK","PEMBETULAN","NOMOR BUKTI POTONG","MASA PEROLEHAN AWAL","MASA PEROLEHAN AKHIR","NPWP","NIK","NAMA","ALAMAT","GENDER","PTKP","JUMLAH TANGGUNGAN","JABATAN","WP LUAR NEGRI","KODE NEGARA","KODE PAJAK","UPAH ","TUNJANGAN PPH","TUNJANGAN LEMBUR","HONORARIUM","PREMI ASURANSI","NATURA","THR, BONUS","JUMLAH BRUTO (1 SD 7)","BIAYA JABATAN","IURAN PENSIUN","JUMLAH PENGURANGAN (9 SD 10)","JUMLAH NETO (8-11)","NETO MASA SEBELUMNYA","NETO (SETAHUN/DISETAHUNKAN)","PTKP","PKP SETAHUN","PPH 21 ATAS PKP SETAHUN/DISETAHUNKAN","PPH 21 YANG TELAH DIPOTONG MASA SEBELUMNYA","PPH 21 TERUTANG","PPH 21 & PPH 26 YANG TELAH DIPOTONG/DILUNASI","STATUS PINDAH","NPWP PEMOTONG","NAMA PEMOTONG","TANGGAL BUKTI POTONG"
"","","","","","","","","","","","","","","","","","","","","","","","","","","","","","","","","","","","","","","","","","",""
"2019040360","PON081","12","2020","0","0","01","12","91.901.550.3-913.000","5.2041009108E+15","A. Rahman","None","L","K1","0","Driller (PS)","NO","0","21-100-01","27328000","1902655.38","69781976.83","0","0","2186240","6812500","108011372.21","5400568.6105","1557696","6958264.6105","101053107.5995","0","101053107.5995","63000000","38053107.5995","38053107.5995","0","1902655.38","0","Pegawai Baru","092261544434000","Heri Susanto","07/Dec/20"
"2020010143","PON328","10","2020","0","0","01","10","69.630.482.3-913.000","5.20418111277E+15","Abdul Azis","None","L","K2","0","Driver (PS)","NO","0","21-100-01","20833920","0","41482714.97","0","0","1822968","6096330","70235932.97","3511796.6485","1298864.7","2212931.9485","68023001.0215","0","68023001.0215","67500000","523001.02149999","523001.02149999","0","0","0","Pegawai Baru","092261544434000","Heri Susanto","07/Dec/20"
"2019080146","PON265","12","2020","0","0","01","12","14.554.930.9-953.000","9.10901270584E+15","Abdul Rahman","None","L","K3","0","Mechanic (PS)","NO","0","21-100-01","54406000","11700844.55","107393638.16","0","0","4352480","14587143","192440105.65","6000000","3101142","9101142","183338963.65","0","183338963.65","72000000","111338963.65","111338963.65","0","11700844.55","0","Pegawai Baru","092261544434000","Heri Susanto","07/Dec/20"
"2020010207","PON340","10","2020","0","0","01","10","97.306.566.7-913.000","5.20702250982E+15","Abdul Rauf","None","L","K2","0","General Helper (PS)","NO","0","21-100-01","21484980","0","41866643.62","0","0","1822968","5977082.23","71151673.85","3557583.6925","1298864.7","2258718.9925","68892954.8575","0","68892954.8575","67500000","1392954.8575","1392954.8575","0","0","0","Pegawai Baru","092261544434000","Heri Susanto","07/Dec/20"
"2020010166","PON334","10","2020","0","0","01","10","35.734.649.3-913.000","5.20704100873E+15","Abidin","None","L","K3","0","Driller (PS)","NO","0","21-100-01","43432190.48","0","74576524.97","0","0","3840320","12776955","134625990.45","6000000","2736228","3263772","131362218.45","0","131362218.45","72000000","59362218.45","59362218.45","0","0","0","Pegawai Baru","092261544434000","Heri Susanto","07/Dec/20"
"2019120037","PON294","08","2020","0","0","01","08","93.592.137.9-913.000","5.20702141195E+15","Ade Kurniawan","None","L","K2","0","General Helper (PS)","NO","0","21-100-01","19857330","0","49309724.82","0","0","1640671.2","5060764.75","75868490.77","3793424.5385","1168978.23","2624446.3085","73244044.4615","0","73244044.4615","67500000","5744044.4615","5744044.4615","0","0","0","Pegawai Baru","092261544434000","Heri Susanto","07/Dec/20"
"2020020039","PON358","08","2020","0","0","01","08","None","5.20702130786E+15","Ade Susanto","None","L","K1","0","General Helper (PS)","NO","0","21-100-01","18338190","0","45476750.18","0","0","1640671.2","3344709.5","68800320.88","3440016.044","1168978.23","2271037.814","66529283.066","0","66529283.066","63000000","3529283.066","3529283.066","0","0","0","Pegawai Baru","092261544434000","Heri Susanto","07/Dec/20"
"2019090093","PON279","09","2020","0","0","01","09","92.565.708.2-913.000","5.20704311286E+15","Aditia","Dsn. Senutuk, RT.004/RW.003, Des. Aikangkung, Kec. Sekongkang KSB-NTB","L","K3","0","General Helper (PS)","NO","0","21-100-01","18989250","0","48328968.96","0","0","1640671.2","5541479.75","74500369.91","3725018.4955","1168978.23","2556040.2655","71944329.6445","0","71944329.6445","72000000","0","0","0","0","0","Pegawai Baru","092261544434000","Heri Susanto","07/Dec/20"
"2019080144","PON223","10","2020","0","0","01","10","57.665.792.8-405.000","3.17409100876E+15","Agus Febrian Lesmana","None","L","K0","0","Logistic (PS)","NO","0","21-100-01","47683866.67","0","87008322.49","0","0","4150720","20105050","158947959.16","6000000","2957388","3042612","155905347.16","0","155905347.16","58500000","97405347.16","97405347.16","0","0","0","Pegawai Baru","092261544434000","Heri Susanto","07/Dec/20"
"2018100105","PON211","11","2020","0","0","01","11","68.786.235.9-445.000","3.20411170869E+15","Agus Sopandi","None","L","K1","0","Driller (PS)","NO","0","21-100-01","60800000","0","124119907.42","0","0","4864000","16568000","206351907.42","6000000","3465600","2534400","203817507.42","0","203817507.42","63000000","140817507.42","140817507.42","0","0","0","Pegawai Baru","092261544434000","Heri Susanto","07/Dec/20"
"2019040349","PON078","10","2020","0","0","01","10","98.195.211.2-913.000","5.20427150985E+15","Ahmad Cahyadi","None","L","K2","0","Asst. Driller (PS)","NO","0","21-100-01","25000000","0","58030345.85","0","0","2000000","8250000","93280345.85","4664017.2925","1425000","3239017.2925","90041328.5575","0","90041328.5575","67500000","22541328.5575","22541328.5575","0","0","0","Pegawai Baru","092261544434000","Heri Susanto","07/Dec/20"
"2019040326","PON258","12","2020","0","0","01","12","84.995.690.9-913.000","5.20702121193E+15","Ahmad Furqon Ibadullah","None","L","K1","0","Logistic Helper (PS)","NO","0","21-100-01","22787100","0","58838160.45","0","0","1822968","8393248.5","91841476.95","4592073.8475","1298864.7","3293209.1475","88548267.8025","0","88548267.8025","63000000","25548267.8025","25548267.8025","0","0","0","Pegawai Baru","092261544434000","Heri Susanto","07/Dec/20"
"2018050358","PON332","11","2020","0","0","01","11","48.165.107.3-017.000","3.17409201276E+15","Ahmad Suhaefi","Jl. H. Kaisin Rt.004 Rw.004  Ciganjur  Jakarta Sel","L","K3","0","Mechanic (PS)","NO","0","21-100-01","46171428.57","0","84264161.58","0","0","3840000","12789041","147064631.15","6000000","2736000","3264000","143800631.15","0","143800631.15","72000000","71800631.15","71800631.15","0","0","0","Pegawai Baru","092261544434000","Heri Susanto","07/Dec/20"
"2020010262","PON338","10","2020","0","0","01","10","85.937.949.7-913.000","5.20705130584E+15","Ahmadi","None","L","K2","0","General Helper (PS)","NO","0","21-100-01","20725410","0","47082399.01","0","0","1822968","5977082.23","75607859.24","3780392.962","1298864.7","2481528.262","73126330.978","0","73126330.978","67500000","5626330.978","5626330.978","0","0","0","Pegawai Baru","092261544434000","Heri Susanto","07/Dec/20"
"2018040066","PON071","12","2020","0","0","01","12","0","5.2041121079E+15","Alansyah","None","L","K1","0","Driller (PS)","NO","0","21-100-01","27328000","0","71178877.65","0","0","2186240","8250000","108943117.65","5447155.8825","1557696","3889459.8825","105053657.7675","0","105053657.7675","63000000","42053657.7675","42053657.7675","0","0","0","Pegawai Baru","092261544434000","Heri Susanto","07/Dec/20"
"2017103089","PON100","10","2020","0","0","01","10","64.197.830.9-953.000","7.10213240477E+15","Alfrets Pangemanan","Jl. Busiri Ujung RT. 23, Inauga, Mimika - Papua","L","K2","0","Asst. Driller (PS)","NO","0","21-100-01","54406000","0","119960512.42","0","0","4352480","15641725","194360717.42","6000000","3101142","2898858","191461859.42","0","191461859.42","67500000","123961859.42","123961859.42","0","0","0","Pegawai Baru","092261544434000","Heri Susanto","07/Dec/20"
"2019040362","PON233","08","2020","0","0","01","08","25.135.111.0-406.000","3.20307160864E+15","Alun Juanda","None","L","K2","0","Driller (PS)","NO","0","21-100-01","45455238.1","0","78126242.59","0","0","3891200","13984000","141456680.69","6000000","2772480","3227520","138229160.69","0","138229160.69","67500000","70729160.69","70729160.69","0","0","0","Pegawai Baru","092261544434000","Heri Susanto","07/Dec/20"
"2020010211","PON344","08","2020","0","0","01","08","94.245.205.3-913.000","5.20703020701E+15","Andhika Putra W","None","L","TK0","0","General Helper (PS)","NO","0","21-100-01","16059480","0","44957782.24","0","0","1458374.4","3356565.73","65832202.37","3291610.1185","1039091.76","2252518.3585","63579684.0115","0","63579684.0115","54000000","9579684.0115","9579684.0115","0","0","0","Pegawai Baru","092261544434000","Heri Susanto","07/Dec/20"
"2018040060","PON077","09","2020","0","0","01","09","98.195.202.1-913.000","5.20427250889E+15","Andri Irawan","None","L","K1","0","Asst. Driller (PS) ","NO","0","21-100-01","20357142.86","0","52108174.91","0","0","1800000","6812500","81077817.77","4053890.8885","1282500","2771390.8885","78306426.8815","0","78306426.8815","63000000","15306426.8815","15306426.8815","0","0","0","Pegawai Baru","092261544434000","Heri Susanto","07/Dec/20"
"2019040353","PON254","08","2020","0","0","01","08","0","5.2070117079E+15","Andy Abdul Aziz","None","L","TK0","0","General Helper (PS)","NO","0","21-100-01","16493520","0","47763361.64","0","0","1458374.4","7519743","73234999.04","3661749.952","1039091.76","2622658.192","70612340.848","0","70612340.848","54000000","16612340.848","16612340.848","0","0","0","Pegawai Baru","092261544434000","Heri Susanto","07/Dec/20"
"2020030067","PON371","07","2020","0","0","03","09","None","5.20405150796E+15","Anugrah Hartas","None","L","TK0","0","General Helper (PS)","NO","0","21-100-01","14757360","0","37287062.95","0","0","1458374.4","3138688.5","56641485.85","2832074.2925","1039091.76","1792982.5325","54848503.3175","0","54848503.3175","54000000","848503.3175","848503.3175","0","0","0","Pegawai Baru","092261544434000","Heri Susanto","07/Dec/20"
"2020030065","PON370","07","2020","0","0","03","09","94.935.481.5-913.000","5.20702171098E+15","Ari Kusuma Jaya","None","L","TK0","0","General Helper (PS)","NO","0","21-100-01","13885280","0","35776095.62","0","0","1275757.6","3138688.5","54075821.72","2703791.086","908977.29","1794813.796","52281007.924","0","52281007.924","54000000","0","0","0","0","0","Pegawai Baru","092261544434000","Heri Susanto","07/Dec/20"
"2018110032","PON356","11","2020","0","0","01","11","86.751.096.8-913.000","5.20702150478E+15","Arifuddin","DUSUN LALAR RT. 005/001  KEL. LALAR LIANG KEC. TALIWANG KAB. SUMBAWA BARAT","L","K1","0","Driller (PS)","NO","0","21-100-01","43889371.43","0","97073955.49","0","0","3840320","14406680.33","159210327.25","6000000","2736228","3263772","155946555.25","0","155946555.25","63000000","92946555.25","92946555.25","0","0","0","Pegawai Baru","092261544434000","Heri Susanto","07/Dec/20"
"2020030080","PON377","07","2020","0","0","03","09","93.712.565.6-913.000","5.20704300698E+15","Arya Johor","None","L","TK0","0","General Helper (PS)","NO","0","21-100-01","13889280","0","36233360.66","0","0","1276077.6","3094987.5","54493705.76","2724685.288","909205.29","1815479.998","52678225.762","0","52678225.762","54000000","0","0","0","0","0","Pegawai Baru","092261544434000","Heri Susanto","07/Dec/20"
"2018040055","PON061","04","2020","0","0","01","04","92.097.062.1-423.000","3.273140911777E+16","Ayi Tosin","None","L","K2","0","Logistic Officer (PS)","NO","0","21-100-01","15565200","0","28251287.86","0","0","1245216","0","45061703.86","2253085.193","887216.4","3140301.593","41921402.267","0","41921402.267","67500000","0","0","0","0","0","Pegawai Baru","092261544434000","Heri Susanto","07/Dec/20"
"2020030063","PON376","07","2020","0","0","03","09","None","5.207080404E+15","Bayu Anugrah Saputra","None","L","TK0","0","General Helper (PS)","NO","0","21-100-01","13889280","0","29445925.53","0","0","1276077.6","3138688.5","47749971.63","2387498.5815","909205.29","1478293.2915","46271678.3385","0","46271678.3385","54000000","0","0","0","0","0","Pegawai Baru","092261544434000","Heri Susanto","07/Dec/20"
"2018090250","PON361","11","2020","0","0","02","12","87.551.892.0-117.000","1.20707191178E+15","Belman Sihombing","JL.GN.SINABUNG PERUM GRAND MARCAPADA INDAH NO.23 BINJAI","L","K0","0","Driller (PS)","NO","0","21-100-01","47481904.77","0","99726531.45","0","0","4377600","6992000","158578036.22","6000000","3119040","2880960","155697076.22","0","155697076.22","58500000","97197076.22","97197076.22","0","0","0","Pegawai Baru","092261544434000","Heri Susanto","07/Dec/20"
"2020010144","PON329","10","2020","0","0","01","10","48.620.023.3-913.000","5.20708240675E+15","Bobby Sutendra","None","L","K3","0","Driver (PS)","NO","0","21-100-01","20833920","0","46945948.78","0","0","1822968","4786071.75","74388908.53","3719445.4265","1298864.7","2420580.7265","71968327.8035","0","71968327.8035","72000000","0","0","0","0","0","Pegawai Baru","092261544434000","Heri Susanto","07/Dec/20"
"2018090247","9181789","10","2020","0","0","01","10","87.010.290.2-009.000","3.17509270772E+15","Budi Utomo","JL.PERTIWI NO. 21 KEL.SUSUKAN KEC.CIRACAS- JAKARTA TIMUR","L","K2","0","Logistic (PS)","NO","0","21-100-01","10376800","0","15340269.35","0","0","830144","5966660","32513873.35","1625693.6675","591477.6","1034216.0675","31479657.2825","0","31479657.2825","67500000","0","0","0","0","0","Pegawai Baru","092261544434000","Heri Susanto","07/Dec/20"
"2019040336","PON076","10","2020","0","0","01","10","0","5.2041108089E+15","Busrayuddin","None","L","TK0","0","Asst. Driller (PS)","NO","0","21-100-01","26552000","0","57810855.47","0","0","2124160","8696200","95183215.47","4759160.7735","1513464","3245696.7735","91937518.6965","0","91937518.6965","54000000","37937518.6965","37937518.6965","0","0","0","Pegawai Baru","092261544434000","Heri Susanto","07/Dec/20"
"2019120038","PON286","08","2020","0","0","01","08","48.165.112.3-913.000","5.20704040272E+15","Bustanuddin","None","L","K2","0","Driller (PS)","NO","0","21-100-01","41970342.86","0","76796890.65","0","0","3481984","12082976","134332193.51","6000000","2480913.6","3519086.4","130813107.11","0","130813107.11","67500000","63313107.11","63313107.11","0","0","0","Pegawai Baru","092261544434000","Heri Susanto","07/Dec/20"
"2020030062","PON373","07","2020","0","0","03","09","None","5.20408040598E+15","Buyung Kamaruszaman","None","L","K1","0","General Helper (PS)","NO","0","21-100-01","16167990","0","32321319.35","0","0","1458374.4","3138688.5","53086372.25","2654318.6125","1039091.76","1615226.8525","51471145.3975","0","51471145.3975","63000000","0","0","0","0","0","Pegawai Baru","092261544434000","Heri Susanto","07/Dec/20"
"2018040059","PON048","12","2020","0","0","01","12","98.195.213.8-913.000","5.20402170888E+15","Darusi Ade Pranata","None","L","K1","0","Asst. Driller (PS)","NO","0","21-100-01","26552000","0","67768924.8","0","0","2124160","6812500","103257584.8","5162879.24","1513464","3649415.24","99608169.56","0","99608169.56","63000000","36608169.56","36608169.56","0","0","0","Pegawai Baru","092261544434000","Heri Susanto","07/Dec/20"
"2017060225","9191264","12","2020","0","0","01","12","14.494.458.4-953.000","3.51111260466E+15","David Budiantono","Jl. Diponegoro RT 023/005, Kel Kota kulon Bondowos","L","K2","0","Logistic Officer (PS)","NO","0","21-100-01","10570800","0","10586075.73","0","0","845664","0","22002539.73","1100126.9865","602535.6","497591.3865","21504948.3435","0","21504948.3435","67500000","0","0","0","0","0","Pegawai Baru","092261544434000","Heri Susanto","07/Dec/20"
"2018090254","PON196","04","2020","0","0","01","04","47.469.842.0-405.000","3.20222130469E+15","Dawud","None","L","K3","0","Driller (PS)","NO","0","21-100-01","20556190.48","0","46187861.08","0","0","1945600","6992000","75681651.56","3784082.578","1386240","2397842.578","73283808.982","0","73283808.982","72000000","1283808.982","1283808.982","0","0","0","Pegawai Baru","092261544434000","Heri Susanto","07/Dec/20"
"2019090025","PON270","11","2020","0","0","01","11","80.571.162.9-823.000","7.10609141096E+15","Daymond Hill Manumpil","None","L","TK0","0","Mechanic Drill (PS)","NO","0","21-100-01","32000000","0","60587282.65","0","0","2560000","7360000","102507282.65","5125364.1325","1824000","3301364.1325","99205918.5175","0","99205918.5175","54000000","45205918.5175","45205918.5175","0","0","0","Pegawai Baru","092261544434000","Heri Susanto","07/Dec/20"
"2017060226","PON019","11","2020","0","0","01","11","73.908.405.1-823.000","7.10609031278E+15","Decky Manopode","None","L","K2","0","Driller I (PS)","NO","0","21-100-01","54406000","0","123639993.36","0","0","4352480","9385035","191783508.36","6000000","3101142","2898858","188884650.36","0","188884650.36","67500000","121384650.36","121384650.36","0","0","0","Pegawai Baru","092261544434000","Heri Susanto","07/Dec/20"
"2018040056","PON096","10","2020","0","0","01","10","80.187.169.0-913.000","5.20408260477E+15","Dedy Sobari","None","L","K1","0","SHE Reps (PS)","NO","0","21-100-01","26278000","0","69498955.92","0","0","2102240","10182725","108061920.92","5403096.046","1497846","3905250.046","104156670.874","0","104156670.874","63000000","41156670.874","41156670.874","0","0","0","Pegawai Baru","092261544434000","Heri Susanto","07/Dec/20"
"2020030066","PON375","07","2020","0","0","03","09","91.092.501.5-913.000","5.20708120898E+15","Dendy","None","L","TK0","0","General Helper (PS)","NO","0","21-100-01","12478650","0","36030477.09","0","0","1276077.6","3138688.5","52923893.19","2646194.6595","909205.29","1736989.3695","51186903.8205","0","51186903.8205","54000000","0","0","0","0","0","Pegawai Baru","092261544434000","Heri Susanto","07/Dec/20"
"2020020001","PON350","05","2020","0","0","01","05","94.245.388.7-913.000","5.20701021288E+15","Dian Badriansyah","None","L","TK0","0","General Helper (PS)","NO","0","21-100-01","8789310","0","21016170.6","0","0","911484","2078152.25","32795116.85","1639755.8425","649432.35","990323.4925","31804793.3575","0","31804793.3575","54000000","0","0","0","0","0","Pegawai Baru","092261544434000","Heri Susanto","07/Dec/20"
"2020010215","PON348","08","2020","0","0","01","08","94.192.571.1-913.000","5.20701170389E+15","Didik Prasetya","None","L","K2","0","General Helper (PS)","NO","0","21-100-01","16059480","0","45642712.43","0","0","1458374.4","3356565.73","66517132.56","3325856.628","1039091.76","2286764.868","64230367.692","0","64230367.692","67500000","0","0","0","0","0","Pegawai Baru","092261544434000","Heri Susanto","07/Dec/20"
"2020010139","PON306","10","2020","0","0","01","10","58.878.600.4-913.000","5.20408080577E+15","Digdo Supriyono","None","L","K3","0","Welder (PS)","NO","0","21-100-01","28285714.29","0","73448646.96","0","0","2400000","6301027","110435388.25","5521769.4125","1710000","3811769.4125","106623618.8375","0","106623618.8375","72000000","34623618.8375","34623618.8375","0","0","0","Pegawai Baru","092261544434000","Heri Susanto","07/Dec/20"
"2017103070","PON053","12","2020","0","0","01","12","68.512.321.8-621.000","3.57701271075E+15","Doddy Hardiono","Jl. Thamrin No. 26 RT. 01/01, Klegen, Kartoharjo, Madiun","L","K2","0","Driller I (PS)","NO","0","21-100-01","43524800","0","70837869.75","0","0","3481984","11697290","129541943.75","6000000","2480913.6","3519086.4","126022857.35","0","126022857.35","67500000","58522857.35","58522857.35","0","0","0","Pegawai Baru","092261544434000","Heri Susanto","07/Dec/20"
"2019040358","PON086","06","2020","0","0","01","06","98.195.183.3-913.000","5.20410051285E+15","Dodi Andi Hamda","None","L","K2","0","Asst. Driller (PS)","NO","0","21-100-01","15000000","0","30513005.72","0","0","1200000","5375000","52088005.72","2604400.286","855000","1749400.286","50338605.434","0","50338605.434","67500000","0","0","0","0","0","Pegawai Baru","092261544434000","Heri Susanto","07/Dec/20"
"2020020040","PON352","12","2020","0","0","01","12","91.210.469.2-913.000","5.20701181094E+15","Dony Irvansyah","None","L","TK0","0","SHE Reps (PS)","NO","0","21-100-01","22738095.24","0","59843999.23","0","0","2000000","10377854.33","94959948.8","4747997.44","1425000","3322997.44","91636951.36","0","91636951.36","54000000","37636951.36","37636951.36","0","0","0","Pegawai Baru","092261544434000","Heri Susanto","07/Dec/20"
"2018050437","PON234","08","2020","0","0","01","08","47.236.753.1-445.000","3.20411111286E+15","Dony Vriansyah","None","L","K1","0","Driller (PS)","NO","0","21-100-01","45455238.1","0","102375953.42","0","0","3891200","20064000","171786391.52","6000000","2772480","3227520","168558871.52","0","168558871.52","63000000","105558871.52","105558871.52","0","0","0","Pegawai Baru","092261544434000","Heri Susanto","07/Dec/20"
"2020070005","PON386","04","2020","0","0","06","09","57.701.464.0-219.000","1.40309040678E+15","Elfrido Sihombing","Jl. Lingkar danau buatan Perum Yepupa blok E 26, RT. 05/10, Kel. Lembah Sari Kec. Rumbai Pesisir ","L","K1","0","Mechanic (PS)","NO","0","21-100-01","14400000","0","20004624.28","0","0","1536000","2760000","38700624.28","1935031.214","1094400","840631.214","37859993.066","0","37859993.066","63000000","0","0","0","0","0","Pegawai Baru","092261544434000","Heri Susanto","07/Dec/20"
"2019120032","PON289","08","2020","0","0","01","08","74.285.962.2-915.000","5.2020731128702E+15","Erwin Putradi","None","L","K1","0","General Helper (PS)","NO","0","21-100-01","17578620","0","43699881.69","0","0","1458374.4","5060764.75","67797640.84","3389882.042","1039091.76","2350790.282","65446850.558","0","65446850.558","63000000","2446850.558","2446850.558","0","0","0","Pegawai Baru","092261544434000","Heri Susanto","07/Dec/20"
"2019120035","PON290","02","2020","0","0","01","02","None","5.20708020578E+15","Faisal Halfan","None","L","K3","0","General Helper (PS)","NO","0","21-100-01","6836130","0","16612198.36","0","0","546890.4","1310258.25","25305477.01","1265273.8505","389659.41","875614.4405","24429862.5695","0","24429862.5695","72000000","0","0","0","0","0","Pegawai Baru","092261544434000","Heri Susanto","07/Dec/20"
"2017103071","PON057","10","2020","0","0","01","10","16.739.465.9-953.000","7.1730419088E+15","Fransiskus Franky Sompotan","Tembagapura, MImika - Papua","L","TK0","0","Driller I (PS)","NO","0","21-100-01","50778933.33","0","106528802.59","0","0","4352480","12513380","174173595.92","6000000","3101142","2898858","171274737.92","0","171274737.92","54000000","117274737.92","117274737.92","0","0","0","Pegawai Baru","092261544434000","Heri Susanto","07/Dec/20"
"2019040334","PON236","11","2020","0","0","01","11","77.291.778.7-653.000","3.50514140474E+15","Hadi Widayanto","None","L","K2","0","Electrician (PS) ","NO","0","21-100-01","60800000","0","81781271.49","0","0","4864000","20064000","167509271.49","6000000","3465600","2534400","164974871.49","0","164974871.49","67500000","97474871.49","97474871.49","0","0","0","Pegawai Baru","092261544434000","Heri Susanto","07/Dec/20"
"2020020038","PON359","10","2020","0","0","01","10","97.386.030.7-913.000","5.2070831128E+15","Haeruddin","None","L","K2","0","General Helper (PS)","NO","0","21-100-01","20725410","0","38640883.85","0","0","1822968","7275484.25","68464746.1","3423237.305","1298864.7","2124372.605","66340373.495","0","66340373.495","67500000","0","0","0","0","0","Pegawai Baru","092261544434000","Heri Susanto","07/Dec/20"
"2019090089","PON277","09","2020","0","0","01","09","0","5.20704100386E+15","Hamdi","Dsn. Senutuk, RT.004/RW.003, Des. Aikangkung, Kec. Sekongkang KSB-NTB","L","K3","0","General Helper (PS)","NO","0","21-100-01","18989250","0","48203836.95","0","0","1640671.2","5541479.75","74375237.9","3718761.895","1168978.23","2549783.665","71825454.235","0","71825454.235","72000000","0","0","0","0","0","Pegawai Baru","092261544434000","Heri Susanto","07/Dec/20"
"2020010214","PON347","10","2020","0","0","01","10","94.436.274.8-914.000","5.20406040479E+15","Hamzah","None","L","K2","0","General Helper (PS)","NO","0","21-100-01","20833920","0","39127987.05","0","0","1822968","5977082.23","67761957.28","3388097.864","1298864.7","2089233.164","65672724.116","0","65672724.116","67500000","0","0","0","0","0","Pegawai Baru","092261544434000","Heri Susanto","07/Dec/20"
"2018110093","PON303","09","2020","0","0","01","09","77.656.940.2-913.000","5.20708090582E+15","Harris Cahyadi","DSN.TATAR RT. 005 RW.003 KEL. BENETE KEC. MALUK","L","K2","0","Logistic Officer (PS)","NO","0","21-100-01","48000000","0","116835259.25","0","0","3840000","10370959","179046218.25","6000000","2736000","3264000","175782218.25","0","175782218.25","58500000","117282218.25","117282218.25","0","0","0","Pegawai Baru","092261544434000","Heri Susanto","07/Dec/20"
"2018040067","PON125","10","2020","0","0","01","10","0","5.2040201076501E+15","Haryono","None","L","K1","0","Driller (PS)","NO","0","21-100-01","50778933.33","0","86261745.83","0","0","4352480","17953980","159347139.16","6000000","3101142","2898858","156448281.16","0","156448281.16","63000000","93448281.16","93448281.16","0","0","0","Pegawai Baru","092261544434000","Heri Susanto","07/Dec/20"
"2019120034","PON292","09","2020","0","0","01","09","94.478.878.5-913.000","5.20705070784E+15","Heri Marianto","None","L","K3","0","General Helper (PS)","NO","0","21-100-01","20291370","0","41081204.67","0","0","1640671.2","7681281.25","70694527.12","3534726.356","1168978.23","2365748.126","68328778.994","0","68328778.994","72000000","0","0","0","0","0","Pegawai Baru","092261544434000","Heri Susanto","07/Dec/20"
"2018012821","PON305","09","2020","0","0","01","09","67.983.221.2-724.000","3.50314080371E+15","Heri Trimanto","rejoso binangun blitar Jatim","L","K1","0","Mechanic (PS)","NO","0","21-100-01","41371428.57","0","88772253.46","0","0","3456000","10370959","143970641.03","6000000","2462400","3537600","140433041.03","0","140433041.03","63000000","77433041.03","77433041.03","0","0","0","Pegawai Baru","092261544434000","Heri Susanto","07/Dec/20"
"2018040070","PON128","10","2020","0","0","01","10","87.357.752.2-913.000","5.20423150683E+15","Hermansyah","None","L","K1","0","Mechanic (PS)","NO","0","21-100-01","48004000","0","117859067.73","0","0","3840320","15841320","185544707.73","6000000","2736228","3263772","182280935.73","0","182280935.73","63000000","119280935.73","119280935.73","0","0","0","Pegawai Baru","092261544434000","Heri Susanto","07/Dec/20"
"2018040062","PON112","12","2020","0","0","01","12","66.441.966.0-913.000","5.20408081069E+15","Ibrahim","None","L","K3","0","Driller 1-1 (PS)","NO","0","21-100-01","48004000","0","106510145.2","0","0","3840320","13081090","171435555.2","6000000","2736228","3263772","168171783.2","0","168171783.2","72000000","96171783.2","96171783.2","0","0","0","Pegawai Baru","092261544434000","Heri Susanto","07/Dec/20"
"2018010712","PON368","07","2020","0","0","02","08","None","21045","Idham Halik","Jalan Nangka II No.05 Karangnangka  Maguwoharjo Sl","L","TK0","0","General Helper (PS)","NO","0","21-100-01","13563750","0","38762058.23","0","0","1276077.6","3201119.5","56803005.33","2840150.2665","909205.29","1930944.9765","54872060.3535","0","54872060.3535","54000000","872060.35350001","872060.35350001","0","0","0","Pegawai Baru","092261544434000","Heri Susanto","07/Dec/20"
"2020010212","PON345","08","2020","0","0","01","08","97.850.069.2-913.000","5.20702260292E+15","Ifan Syahdinata","None","L","K2","0","General Helper (PS)","NO","0","21-100-01","18338190","0","48453562.86","0","0","1640671.2","3356565.73","71788989.79","3589449.4895","1168978.23","2420471.2595","69368518.5305","0","69368518.5305","67500000","1868518.5305","1868518.5305","0","0","0","Pegawai Baru","092261544434000","Heri Susanto","07/Dec/20"
"2020010142","PON324","10","2020","0","0","01","10","85.325.377.1-913.000","5.20704101183E+15","Ihksan Aryadi","None","L","K1","0","Driver (PS)","NO","0","21-100-01","22461570","0","64166126.96","0","0","1822968","4786071.75","93236736.71","4661836.8355","1298864.7","3362972.1355","89873764.5745","0","89873764.5745","63000000","26873764.5745","26873764.5745","0","0","0","Pegawai Baru","092261544434000","Heri Susanto","07/Dec/20"
"2019120031","PON288","08","2020","0","0","01","08","94.534.681.5-913.000","5.20703220997E+15","Ikrar Putra Sani","None","L","K0","0","General Helper (PS)","NO","0","21-100-01","17578620","0","46768895.17","0","0","1458374.4","5060764.75","70866654.32","3543332.716","1039091.76","2504240.956","68362413.364","0","68362413.364","58500000","9862413.364","9862413.364","0","0","0","Pegawai Baru","092261544434000","Heri Susanto","07/Dec/20"
"2017103067","PON054","10","2020","0","0","01","10","77.801.328.4-404.000","3.27106050369E+15","Imam Darmawan","none","L","K3","0","Driller II (PS)","NO","0","21-100-01","56754133.33","0","97240075.58","0","0","4864640","20066640","178925488.91","6000000","3466056","2533944","176391544.91","0","176391544.91","72000000","104391544.91","104391544.91","0","0","0","Pegawai Baru","092261544434000","Heri Susanto","07/Dec/20"
"2020030064","PON374","07","2020","0","0","03","09","None","5.20707050579E+15","Irwan Burhanuddin","None","L","K2","0","General Helper (PS)","NO","0","21-100-01","16167990","0","32941706.19","0","0","1458374.4","3138688.5","53706759.09","2685337.9545","1039091.76","1646246.1945","52060512.8955","0","52060512.8955","67500000","0","0","0","0","0","Pegawai Baru","092261544434000","Heri Susanto","07/Dec/20"
"2019040335","PON083","12","2020","0","0","01","12","98.195.173.4-913.000","5.20427030573E+15","Irwan Maula","None","L","K2","0","Asst. Driller (PS)","NO","0","21-100-01","25000000","0","62521675.36","0","0","2000000","6812500","96334175.36","4816708.768","1425000","3391708.768","92942466.592","0","92942466.592","67500000","25442466.592","25442466.592","0","0","0","Pegawai Baru","092261544434000","Heri Susanto","07/Dec/20"
"2018040058","PON098","10","2020","0","0","01","10","0","5.20408120576E+15","Ismail","None","L","K3","0","Driller 1-4 (PS)","NO","0","21-100-01","48004000","0","115625355.92","0","0","3840320","18601550","186071225.92","6000000","2736228","3263772","182807453.92","0","182807453.92","72000000","110807453.92","110807453.92","0","0","0","Pegawai Baru","092261544434000","Heri Susanto","07/Dec/20"
"2019120098","PON372","10","2020","0","0","01","10","None","5.2070431129E+15","Iwan Jayadi","None","L","TK0","0","General Helper (PS)","NO","0","21-100-01","18229680","0","48882958.94","0","0","1458374.4","4448946.75","73019960.09","3650998.0045","1039091.76","2611906.2445","70408053.8455","0","70408053.8455","54000000","16408053.8455","16408053.8455","0","0","0","Pegawai Baru","092261544434000","Heri Susanto","07/Dec/20"
"2017060249","PON045","10","2020","0","0","01","10","47.964.659.8-401.000","3.60202160265E+15","Iyus Marwandi","None","L","K2","0","Driller II (PS)","NO","0","21-100-01","60808000","0","127046540.06","0","0","4864640","20066640","212785820.06","6000000","3466056","2533944","210251876.06","0","210251876.06","67500000","142751876.06","142751876.06","0","0","0","Pegawai Baru","092261544434000","Heri Susanto","07/Dec/20"
"2017103087","PON107","08","2020","0","0","01","08","54.641.332.9-823.000","7.1061001018E+15","Jandry Jemmy Novi Kodoatie","Jaga 2, Paslaten, Likupang Selatan, Minahasa Utara","L","K2","0","Driller I (PS)","NO","0","21-100-01","35888704.76","0","73615382.03","0","0","3072256","13801150","126377492.79","6000000","2188982.4","3811017.6","122566475.19","0","122566475.19","67500000","55066475.19","55066475.19","0","0","0","Pegawai Baru","092261544434000","Heri Susanto","07/Dec/20"
"2019040327","PON155","09","2020","0","0","01","09","67.363.583.5-953.000","1.27116040171E+15","Jannus Sitorus","Jl. C. Hetaubun BL. 1, Kwamki - Mimika Baru, Mimika Papua","L","K3","0","Senior Driller (PS)","NO","0","21-100-01","54148076.19","0","111176707.48","0","0","4378176","13985840","183688799.67","6000000","3119450.4","2880549.6","180808250.07","0","180808250.07","72000000","108808250.07","108808250.07","0","0","0","Pegawai Baru","092261544434000","Heri Susanto","07/Dec/20"
"2019040351","PON121","09","2020","0","0","01","09","0","5.20427050184E+15","Janoal Arifin","None","L","K2","0","Asst. Driller (PS)","NO","0","21-100-01","25000000","0","56400288.05","0","0","2000000","6812500","90212788.05","4510639.4025","1425000","3085639.4025","87127148.6475","0","87127148.6475","67500000","19627148.6475","19627148.6475","0","0","0","Pegawai Baru","092261544434000","Heri Susanto","07/Dec/20"
"2017103068","PON060","10","2020","0","0","01","10","69.690.489.5-953.000","9.10901020767E+15","Johan Lekahena","Jl. Paulus Magal Kel. Kwamki Kec. Mimika Baru, Mimika - Papua","L","K3","0","Driller II (PS)","NO","0","21-100-01","60808000","0","119753095.98","0","0","4864640","13985840","199411575.98","6000000","3466056","2533944","196877631.98","0","196877631.98","72000000","124877631.98","124877631.98","0","0","0","Pegawai Baru","092261544434000","Heri Susanto","07/Dec/20"
"2019120340","PON364","08","2020","0","0","01","08","None","5.20708171299E+15","Johri Ramdanu","None","L","TK0","0","General Helper (PS)","NO","0","21-100-01","13346730","0","33532879.97","0","0","1276077.6","3201119.5","51356807.07","2567840.3535","909205.29","1658635.0635","49698172.0065","0","49698172.0065","54000000","0","0","0","0","0","Pegawai Baru","092261544434000","Heri Susanto","07/Dec/20"
"2018040063","PON113","10","2020","0","0","01","10","54.040.491.0-825.000","7.10319140269E+15","Jonelson Piter Manansang","Lindongan H. Salurang RT. 01, Salurang - Tabukan Selatan Tengah, Kepulauan Sangihe, Sulawesi Utara","L","K0","0","Asst. Driller (PS)","NO","0","21-100-01","54406000","0","119473059.83","0","0","4352480","9385035","187616574.83","6000000","3101142","2898858","184717716.83","0","184717716.83","58500000","126217716.83","126217716.83","0","0","0","Pegawai Baru","092261544434000","Heri Susanto","07/Dec/20"
"2019040350","PON245","10","2020","0","0","01","10","84.980.917.3-913.000","5.20704060288E+15","Junaidi","None","L","K0","0","General Helper (PS)","NO","0","21-100-01","22787100","0","59299171.13","0","0","1822968","10140259.5","94049498.63","4702474.9315","1298864.7","3403610.2315","90645888.3985","0","90645888.3985","58500000","32145888.3985","32145888.3985","0","0","0","Pegawai Baru","092261544434000","Heri Susanto","07/Dec/20"
"2019040328","PON260","12","2020","0","0","01","12","85.900.108.3-913.000","5.2070808029E+15","Juraidin","None","L","K1","0","Logistic Helper (PS)","NO","0","21-100-01","22787100","0","62052063.63","0","0","1822968","8393248.5","95055380.13","4752769.0065","1298864.7","3453904.3065","91601475.8235","0","91601475.8235","63000000","28601475.8235","28601475.8235","0","0","0","Pegawai Baru","092261544434000","Heri Susanto","07/Dec/20"
"2017103080","PON087","11","2020","0","0","01","11","73.144.016.8-953.000","7.10601140385E+15","Kasim Aku","Jl. Pattimura Gang Rejeki, Koperapoka, Mimika Baru, Mimika Papua","L","K1","0","Driller 1-1 (PS)","NO","0","21-100-01","50914000","0","68469029.22","0","0","4073120","13874065","137330214.22","6000000","2902098","3097902","134232312.22","0","134232312.22","63000000","71232312.22","71232312.22","0","0","0","Pegawai Baru","092261544434000","Heri Susanto","07/Dec/20"
"2019120036","PON291","09","2020","0","0","01","09","84.372.249.7-913.000","5.2070504068E+15","Khaeruddin","None","L","K2","0","General Helper (PS)","NO","0","21-100-01","22787100","0","57929573.74","0","0","1822968","6371023","88910664.74","4445533.237","1298864.7","3146668.537","85763996.203","0","85763996.203","67500000","18263996.203","18263996.203","0","0","0","Pegawai Baru","092261544434000","Heri Susanto","07/Dec/20"
"2020010208","PON341","08","2020","0","0","01","08","None","5.20704080801E+15","L. Doni Ikhsan Setiawan","None","L","TK0","0","General Helper (PS)","NO","0","21-100-01","15950970","0","42527596.49","0","0","1458374.4","3356565.73","63293506.62","3164675.331","1039091.76","2125583.571","61167923.049","0","61167923.049","54000000","7167923.049","7167923.049","0","0","0","Pegawai Baru","092261544434000","Heri Susanto","07/Dec/20"
"2020010261","PON337","09","2020","0","0","01","09","94.510.839.7-913.000","5.20204140882E+15","Lalu Bangsawan","None","L","K1","0","General Helper (PS)","NO","0","21-100-01","18555210","0","46797737.62","0","0","1640671.2","4230071.23","71223690.05","3561184.5025","1168978.23","2392206.2725","68831483.7775","0","68831483.7775","63000000","5831483.7775","5831483.7775","0","0","0","Pegawai Baru","092261544434000","Heri Susanto","07/Dec/20"
"2019090091","PON276","09","2020","0","0","01","09","91.204.166.2-915.000","5.2031631128403E+15","Lalu Ihsan Muliadi","Dsn. Batu Berkong, RT.005/RW.003, Des. Sekongkang Bawah, Kec. Sekongkang KSB-NTB","L","K1","0","General Helper (PS)","NO","0","21-100-01","18989250","0","40183566.06","0","0","1640671.2","5541479.75","66354967.01","3317748.3505","1168978.23","2148770.1205","64206196.8895","0","64206196.8895","63000000","1206196.8895","1206196.8895","0","0","0","Pegawai Baru","092261544434000","Heri Susanto","07/Dec/20"
"2018120505","PON251","08","2020","0","0","01","08","0","5.20316141192E+15","Lalu Rumiwang Syam","None","L","K1","0","General Helper (PS)","NO","0","21-100-01","17904150","0","46123480.36","0","0","1458374.4","7519743","73005747.76","3650287.388","1039091.76","2611195.628","70394552.132","0","70394552.132","63000000","7394552.132","7394552.132","0","0","0","Pegawai Baru","092261544434000","Heri Susanto","07/Dec/20"
"2019040348","PON247","10","2020","0","0","01","10","94.509.811.9-913.000","5.2030215097E+15","Lalu Sunardi","None","L","TK0","0","Driver (PS)","NO","0","21-100-01","22787100","0","62763336.47","0","0","1822968","10140259.5","97513663.97","4875683.1985","1298864.7","3576818.4985","93936845.4715","0","93936845.4715","54000000","39936845.4715","39936845.4715","0","0","0","Pegawai Baru","092261544434000","Heri Susanto","07/Dec/20"
"2017103075","PON058","10","2020","0","0","01","10","55.330.072.4-655.000","3.50603130593E+15","Lukman Hadi","none","L","TK0","0","Driller I (PS)","NO","0","21-100-01","53369695.24","0","83433015.89","0","0","4352480","17953980","159109171.13","6000000","3101142","2898858","156210313.13","0","156210313.13","54000000","102210313.13","102210313.13","0","0","0","Pegawai Baru","092261544434000","Heri Susanto","07/Dec/20"
"2020030126","PON381","10","2020","0","0","03","12","94.991.835.3-325.000","1.80612050287E+15","M. Andin Barudin","None","L","K2","0","Driller (PS)","NO","0","21-100-01","45744761.9","0","113569479.25","0","0","3891200","8158027","171363468.15","6000000","2772480","3227520","168135948.15","0","168135948.15","67500000","100635948.15","100635948.15","0","0","0","Pegawai Baru","092261544434000","Heri Susanto","07/Dec/20"
"2017103079","PON090","08","2020","0","0","01","08","58.998.016.8-953.000","7.37108050379E+15","M. Rusydi","Jl. Budi Utomo RT. 09/02, Koperapoka, Mimika Baru","L","K2","0","Asst. Driller (PS)","NO","0","21-100-01","40156809.52","0","69878688.81","0","0","3481984","14825635","128343117.33","6000000","2480913.6","3519086.4","124824030.93","0","124824030.93","67500000","57324030.93","57324030.93","0","0","0","Pegawai Baru","092261544434000","Heri Susanto","07/Dec/20"
"2019040346","PON250","08","2020","0","0","01","08","0","5.20704311272E+15","M. Saleh Boro","None","L","K3","0","General Helper (PS)","NO","0","21-100-01","17904150","0","47888492.57","0","0","1458374.4","7519743","74770759.97","3738537.9985","1039091.76","2699446.2385","72071313.7315","0","72071313.7315","72000000","71313.7315","71313.7315","0","0","0","Pegawai Baru","092261544434000","Heri Susanto","07/Dec/20"
"2020020037","PON357","10","2020","0","0","01","10","84.814.896.1-913.000","5.20708010785E+15","M. Syarifuddin","None","L","K3","0","General Helper (PS)","NO","0","21-100-01","20725410","0","48215419.08","0","0","1822968","3344709.5","74108506.58","3705425.329","1298864.7","2406560.629","71701945.951","0","71701945.951","72000000","0","0","0","0","0","Pegawai Baru","092261544434000","Heri Susanto","07/Dec/20"
"2017060555","PON355","10","2020","0","0","01","10","None","5.20704311268E+15","M. Yasin","Ds.Sekongkang Atas.Rt.04/Rw.02","L","K2","0","Driller Assistant (PS)","NO","0","21-100-01","22738095.24","0","38621387.21","0","0","2000000","6544521","69904003.45","3495200.1725","1425000","2070200.1725","67833803.2775","0","67833803.2775","67500000","333803.2775","333803.2775","0","0","0","Pegawai Baru","092261544434000","Heri Susanto","07/Dec/20"
"2020010209","PON342","10","2020","0","0","01","10","None","5.20704010179E+15","M. Zainuddin S","None","L","K3","0","General Helper (PS)","NO","0","21-100-01","20833920","0","40122452.99","0","0","1822968","5977082.23","68756423.22","3437821.161","1298864.7","2138956.461","66617466.759","0","66617466.759","72000000","0","0","0","0","0","Pegawai Baru","092261544434000","Heri Susanto","07/Dec/20"
"2018040057","PON097","10","2020","0","0","01","10","84.982.772.0-913.000","5.2040803028E+15","Mahfud","None","L","K2","0","Driller 1-1 (PS)","NO","0","21-100-01","48004000","0","108924219.15","0","0","3840320","18601550","179370089.15","6000000","2736228","3263772","176106317.15","0","176106317.15","67500000","108606317.15","108606317.15","0","0","0","Pegawai Baru","092261544434000","Heri Susanto","07/Dec/20"
"2017060227","PON023","08","2020","0","0","01","08","15.963.670.3-953.000","9.5207070983552E+14","Marwal Parman Situmorang","None","L","K3","0","Driller I (PS)","NO","0","21-100-01","43865800","0","98796162.96","0","0","3755136","10121265","156538363.96","6000000","2675534.4","3324465.6","153213898.36","0","153213898.36","72000000","81213898.36","81213898.36","0","0","0","Pegawai Baru","092261544434000","Heri Susanto","07/Dec/20"
"2017060229","PON259","12","2020","0","0","01","12","81.802.184.2-601.000","3.52212311271E+15","Matrum","None","L","K2","0","Driller (PS)","NO","0","21-100-01","60800000","0","123445086.38","0","0","4864000","20064000","209173086.38","6000000","3465600","2534400","206638686.38","0","206638686.38","67500000","139138686.38","139138686.38","0","0","0","Pegawai Baru","092261544434000","Heri Susanto","07/Dec/20"
"2017060230","PON021","12","2020","0","0","01","12","47.831.526.0-821.000","7.10705021082E+15","Moudy Ruland Monigir","Jaga III, Kel. Betelen Kec. Tombatu Minah, Minahasa ","L","K2","0","Asst. Driller (PS)","NO","0","21-100-01","58674000","0","113040717.87","0","0","4693920","13495020","189903657.87","6000000","3344418","2655582","187248075.87","0","187248075.87","67500000","119748075.87","119748075.87","0","0","0","Pegawai Baru","092261544434000","Heri Susanto","07/Dec/20"
"2019040361","PON049","12","2020","0","0","01","12","0","5.20428291191E+15","Muazzin","None","L","TK0","0","Asst. Driller (PS)","NO","0","21-100-01","25000000","0","60585260.06","0","0","2000000","6812500","94397760.06","4719888.003","1425000","3294888.003","91102872.057","0","91102872.057","54000000","37102872.057","37102872.057","0","0","0","Pegawai Baru","092261544434000","Heri Susanto","07/Dec/20"
"2020030084","PON378","07","2020","0","0","03","09","84.771.089.4-913.000","5.20704291094E+15","Muhammad Akbar","None","L","TK0","0","General Helper (PS)","NO","0","21-100-01","13889280","0","36233360.66","0","0","1276077.6","3094987.5","54493705.76","2724685.288","909205.29","1815479.998","52678225.762","0","52678225.762","54000000","0","0","0","0","0","Pegawai Baru","092261544434000","Heri Susanto","07/Dec/20"
"2019120033","PON287","08","2020","0","0","01","08","92.978.951.9-913.000","5.20708270395E+15","Muhammad Hasbullah","None","L","TK0","0","General Helper (PS)","NO","0","21-100-01","17578620","0","48013624.58","0","0","1458374.4","5060764.75","72111383.73","3605569.1865","1039091.76","2566477.4265","69544906.3035","0","69544906.3035","54000000","15544906.3035","15544906.3035","0","0","0","Pegawai Baru","092261544434000","Heri Susanto","07/Dec/20"
"2019040340","PON244","10","2020","0","0","01","10","0","5.20708311282E+15","Muhammad Rofi i","None","L","K3","0","General Helper (PS)","NO","0","21-100-01","22787100","0","59299171.13","0","0","1822968","10140259.5","94049498.63","4702474.9315","1298864.7","3403610.2315","90645888.3985","0","90645888.3985","72000000","18645888.3985","18645888.3985","0","0","0","Pegawai Baru","092261544434000","Heri Susanto","07/Dec/20"
"2020010213","PON346","07","2020","0","0","01","07","92.655.658.0-913.000","5.20704010175E+15","Muhammad Zainal Abidin","None","L","K2","0","General Helper (PS)","NO","0","21-100-01","12478650","0","30748109.92","0","0","1093780.8","2046307.48","46366848.2","2318342.41","779318.82","1539023.59","44827824.61","0","44827824.61","67500000","0","0","0","0","0","Pegawai Baru","092261544434000","Heri Susanto","07/Dec/20"
"2018120498","PON273","09","2020","0","0","01","09","92.511.187.4-913.000","5.20708090291E+15","Muhiddin","Desa Benete RT.004/RW.002 Des. Benete Kec.Maluk Kab. Sumbawa Barat-NTB","L","TK0","0","General Helper (PS)","NO","0","21-100-01","7595700","0","18784757.26","0","0","729187.2","3930774.75","31040419.21","1552020.9605","519545.88","1032475.0805","30007944.1295","0","30007944.1295","54000000","0","0","0","0","0","Pegawai Baru","092261544434000","Heri Susanto","07/Dec/20"
"2020010210","PON343","10","2020","0","0","01","10","None","5.2070807098E+15","Mukhrifin Urief","None","L","K3","0","General Helper (PS)","NO","0","21-100-01","20725410","0","44718072.73","0","0","1822968","3400896.5","70667347.23","3533367.3615","1298864.7","2234502.6615","68432844.5685","0","68432844.5685","72000000","0","0","0","0","0","Pegawai Baru","092261544434000","Heri Susanto","07/Dec/20"
"2019040355","PON085","08","2020","0","0","01","08","98.195.179.1-913.000","5.20427120475E+15","Musa Arifin","None","L","K2","0","SHE Reps (PS)","NO","0","21-100-01","20000000","0","43796242.72","0","0","1600000","8250000","73646242.72","3682312.136","1140000","2542312.136","71103930.584","0","71103930.584","67500000","3603930.584","3603930.584","0","0","0","Pegawai Baru","092261544434000","Heri Susanto","07/Dec/20"
"2019040332","PON165","12","2020","0","0","01","12","0","5.20427120573E+15","Mustambil","None","L","K2","0","Driller 1-1 (PS)","NO","0","21-100-01","48004000","0","108091779.54","0","0","3840320","13081090","173017189.54","6000000","2736228","3263772","169753417.54","0","169753417.54","67500000","102253417.54","102253417.54","0","0","0","Pegawai Baru","092261544434000","Heri Susanto","07/Dec/20"
"2020030081","PON379","07","2020","0","0","03","09","48.127.824.0-913.000","5.20704311277E+15","Najamuddin","None","L","K3","0","General Helper (PS)","NO","0","21-100-01","13889280","0","36108229.18","0","0","1276077.6","3094987.5","54368574.28","2718428.714","909205.29","1809223.424","52559350.856","0","52559350.856","72000000","0","0","0","0","0","Pegawai Baru","092261544434000","Heri Susanto","07/Dec/20"
"2019120096","PON366","08","2020","0","0","01","08","91.173.109.9-913.000","5.20704160993E+15","Nalem","None","L","K2","0","General Helper (PS)","NO","0","21-100-01","13346730","0","37003368.77","0","0","1276077.6","3201119.5","54827295.87","2741364.7935","909205.29","1832159.5035","52995136.3665","0","52995136.3665","67500000","0","0","0","0","0","Pegawai Baru","092261544434000","Heri Susanto","07/Dec/20"
"2017060233","PON008","11","2020","0","0","01","11","16.739.461.8-953.000","7.10601261168E+15","Noldy Lang","Jl. Amoko RT. 07, Koperapoka, Mimika Baru ","L","K3","0","Driller I (PS)","NO","0","21-100-01","54406000","0","89266722.93","0","0","4352480","9385035","157410237.93","6000000","3101142","2898858","154511379.93","0","154511379.93","72000000","82511379.93","82511379.93","0","0","0","Pegawai Baru","092261544434000","Heri Susanto","07/Dec/20"
"2020010165","PON335","11","2020","0","0","01","11","None","5.20704160571E+15","Nurmain","None","L","K1","0","Driller (PS)","NO","0","21-100-01","38631790.48","0","101720668.78","0","0","3456288","12776955","156585702.26","6000000","2462605.2","3537394.8","153048307.46","0","153048307.46","63000000","90048307.46","90048307.46","0","0","0","Pegawai Baru","092261544434000","Heri Susanto","07/Dec/20"
"2019090087","PON275","09","2020","0","0","01","09","93.112.338.4-913.000","5.20702100492E+15","Panji Ahyan Saputra","Lingk. Dalam, RT.001/RW.001, Kel. Dalam, Kec. Taliwang KSB-NTB","L","K1","0","General Helper (PS)","NO","0","21-100-01","21267960","0","46839248.09","0","0","1822968","5541479.75","75471655.84","3773582.792","1298864.7","2474718.092","72996937.748","0","72996937.748","63000000","9996937.748","9996937.748","0","0","0","Pegawai Baru","092261544434000","Heri Susanto","07/Dec/20"
"2020010140","PON325","10","2020","0","0","01","10","47.852.943.1-913.000","5.20708080677E+15","Pawanari","None","L","K3","0","Welder (PS)","NO","0","21-100-01","29571428.57","0","77296241.88","0","0","2400000","6301027","115568697.45","5778434.8725","1710000","4068434.8725","111500262.5775","0","111500262.5775","72000000","39500262.5775","39500262.5775","0","0","0","Pegawai Baru","092261544434000","Heri Susanto","07/Dec/20"
"2019120030","PON293","08","2020","0","0","01","08","94.357.055.6-913.000","5.20701291186E+15","Pedi Pranata","None","L","K2","0","General Helper (PS)","NO","0","21-100-01","19857330","0","50574212.1","0","0","1640671.2","5060764.75","77132978.05","3856648.9025","1168978.23","2687670.6725","74445307.3775","0","74445307.3775","67500000","6945307.3775","6945307.3775","0","0","0","Pegawai Baru","092261544434000","Heri Susanto","07/Dec/20"
"2019120387","PON299","12","2020","0","0","01","12","66.026.442.5-629.000","3.50416190484E+15","Pendi Irawan","None","L","K1","0","Logistic (PS)","NO","0","21-100-01","22250970","0","49316461.62","0","0","1780077.6","4876847.5","78224356.72","3911217.836","1268305.29","2642912.546","75581444.174","0","75581444.174","63000000","12581444.174","12581444.174","0","0","0","Pegawai Baru","092261544434000","Heri Susanto","07/Dec/20"
"2019120337","PON367","10","2020","0","0","01","10","None","5.2070316079E+15","Perdianto","None","L","K1","0","General Helper (PS)","NO","0","21-100-01","18772230","0","52214092.91","0","0","1640671.2","4948130.5","77575124.61","3878756.2305","1168978.23","2709778.0005","74865346.6095","0","74865346.6095","63000000","11865346.6095","11865346.6095","0","0","0","Pegawai Baru","092261544434000","Heri Susanto","07/Dec/20"
"2019040357","PON249","10","2020","0","0","01","10","0","5.20701051087E+15","Perwira Irwansyah","None","L","K3","0","General Helper (PS)","NO","0","21-100-01","22787100","0","59174039.65","0","0","1822968","10140259.5","93924367.15","4696218.3575","1298864.7","3397353.6575","90527013.4925","0","90527013.4925","72000000","18527013.4925","18527013.4925","0","0","0","Pegawai Baru","092261544434000","Heri Susanto","07/Dec/20"
"2017060235","","03","2020","0","0","01","03","77.374.158.2-035.000","9.10901280275E+15","Petrus Mande Toding","None","L","K2","0","Driller II (PS)","NO","0","21-100-01","18242400","0","24991033.51","0","0","1459392","0","44692825.51","2234641.2755","1039816.8","1194824.4755","43498001.0345","0","43498001.0345","67500000","0","0","0","0","0","Pegawai Baru","092261544434000","Heri Susanto","07/Dec/20"
"2019040337","PON253","09","2020","0","0","01","09","73.623.849.4-913.000","5.20426080492E+15","Raehanol Fitranuddin","None","L","K0","0","General Helper (PS)","NO","0","21-100-01","20399880","0","49143560.21","0","0","1640671.2","10140259.5","81324370.91","4066218.5455","1168978.23","2897240.3155","78427130.5945","0","78427130.5945","58500000","19927130.5945","19927130.5945","0","0","0","Pegawai Baru","092261544434000","Heri Susanto","07/Dec/20"
"2018090473","PON339","10","2020","0","0","01","10","15.563.594.9-721.000","6.47105020382E+15","Rahmad Taufik","JL.PENGGALANG KEL.DAMAI KEC.BALIKPAPAN ","L","K2","0","SHE Reps (PS)","NO","0","21-100-01","43657142.86","0","91978611.85","0","0","3840000","9818630","149294384.71","6000000","2736000","3264000","146030384.71","0","146030384.71","67500000","78530384.71","78530384.71","0","0","0","Pegawai Baru","092261544434000","Heri Susanto","07/Dec/20"
"2018090259","PON175","11","2020","0","0","01","11","64.229.878.0-953.000","9.10901170277E+15","Reginaldus Dindu Dino","None","L","K3","0","Surveyor & Administrator (PS)","NO","0","21-100-01","31112000","0","69111800.26","0","0","2488960","5366820","108079580.26","5403979.013","1773384","3630595.013","104448985.247","0","104448985.247","72000000","32448985.247","32448985.247","0","0","0","Pegawai Baru","092261544434000","Heri Susanto","07/Dec/20"
"2020020089","PON331","10","2020","0","0","01","10","93.859.821.6-526.000","3.37205300998E+15","Rekyan Yudatama","None","L","TK0","0","Surveyor (PS)","NO","0","21-100-01","19814517","0","41245246.69","0","0","1585161.36","4660332.44","67305257.49","3365262.8745","1129427.46","2235835.4145","65069422.0755","0","65069422.0755","54000000","11069422.0755","11069422.0755","0","0","0","Pegawai Baru","092261544434000","Heri Susanto","07/Dec/20"
"2020010167","PON330","09","2020","0","0","01","09","76.193.123.7-806.000","7.30201150574E+15","Risman","None","L","K3","0","Logistic Officer (PS)","NO","0","21-100-01","46171428.57","0","82002311.49","0","0","3840000","9109041","141122781.06","6000000","2736000","3264000","137858781.06","0","137858781.06","72000000","65858781.06","65858781.06","0","0","0","Pegawai Baru","092261544434000","Heri Susanto","07/Dec/20"
"2018110322","PON212","06","2020","0","0","01","06","57.664.823.0-117.000","1.21111220184E+15","Ronson Pasaribu","None","L","K0","0","Driller (PS)","NO","0","21-100-01","35032380.95","0","54421271.67","0","0","2918400","0","92372052.62","4618602.631","2079360","2539242.631","89832809.989","0","89832809.989","58500000","31332809.989","31332809.989","0","0","0","Pegawai Baru","092261544434000","Heri Susanto","07/Dec/20"
"2019090090","PON280","09","2020","0","0","01","09","0","5.20702311279E+15","Rosidin","Dusun Bagsal, RT.005/RW.002, Des. Lab. Lalar, Kec. Taliwang KSB-NTB","L","K2","0","General Helper (PS)","NO","0","21-100-01","18989250","0","46524441.28","0","0","1640671.2","5541479.75","72695842.23","3634792.1115","1168978.23","2465813.8815","70230028.3485","0","70230028.3485","67500000","2730028.3485","2730028.3485","0","0","0","Pegawai Baru","092261544434000","Heri Susanto","07/Dec/20"
"2018120495","PON362","07","2020","0","0","02","08","None","5.20708010892E+15","Rudini","Dusun Tatar RT.005/RW.003 Des. Benete Kec.Maluk Kab. Sumbawa Barat - NTB","L","K1","0","General Helper (PS)","NO","0","21-100-01","13346730","0","33098212.75","0","0","1276077.6","3201119.5","50922139.85","2546106.9925","909205.29","1636901.7025","49285238.1475","0","49285238.1475","63000000","0","0","0","0","0","Pegawai Baru","092261544434000","Heri Susanto","07/Dec/20"
"2020020036","PON354","10","2020","0","0","01","10","66.440.117.1-915.000","5.20300290672E+15","Rusdan Efendi","None","L","K2","0","Driller (PS)","NO","0","21-100-01","43660780.95","0","79384352.47","0","0","3840320","12566527","139451980.42","6000000","2736228","3263772","136188208.42","0","136188208.42","67500000","68688208.42","68688208.42","0","0","0","Pegawai Baru","092261544434000","Heri Susanto","07/Dec/20"
"2019040330","","03","2020","0","0","01","03","59.542.473.0-821.000","7.10607280681E+15","Sa ban Bawuhas","None","L","K2","0","Logistic (PS)","NO","0","21-100-01","14400000","0","26136416.18","0","0","1152000","5520000","47208416.18","2360420.809","820800","1539620.809","45668795.371","0","45668795.371","67500000","0","0","0","0","0","Pegawai Baru","092261544434000","Heri Susanto","07/Dec/20"
"2020040047","PON385","06","2020","0","0","04","09","49.120.740.3-913.000","5.2070123068E+15","Saaludin","None","L","K3","0","Driver (PS)","NO","0","21-100-01","13997790","0","40333859.01","0","0","1276077.6","2383540.75","57991267.36","2899563.368","909205.29","1990358.078","56000909.282","0","56000909.282","72000000","0","0","0","0","0","Pegawai Baru","092261544434000","Heri Susanto","07/Dec/20"
"2019090092","PON274","05","2020","0","0","01","05","92.475.783.4-913.000","5.2070110069E+15","Safaruddin","Dsn. Jelenga RT.010/RW.005, Des. Beru Kec. Jereweh KSB-NTB","L","K2","0","General Helper (PS)","NO","0","21-100-01","10199940","0","23432658.48","0","0","911484","1610705","36154787.48","1807739.374","649432.35","1158307.024","34996480.456","0","34996480.456","67500000","0","0","0","0","0","Pegawai Baru","092261544434000","Heri Susanto","07/Dec/20"
"2019080145","PON266","12","2020","0","0","01","12","69.575.799.7-305.000","1.90604291172E+15","Samardin","None","L","K2","0","Driller (PS)","NO","0","21-100-01","60800000","0","103139537.37","0","0","4864000","16301479","185105016.37","6000000","3465600","2534400","182570616.37","0","182570616.37","67500000","115070616.37","115070616.37","0","0","0","Pegawai Baru","092261544434000","Heri Susanto","07/Dec/20"
"2018090274","PON185","12","2020","0","0","01","12","44.453.375.6-085.000","3.17306250165E+15","Samsul Kamal","None","L","K3","0","Mechanic (PS)","NO","0","21-100-01","60800000","0","107313757.05","0","0","4864000","16568000","189545757.05","6000000","3465600","2534400","187011357.05","0","187011357.05","72000000","115011357.05","115011357.05","0","0","0","Pegawai Baru","092261544434000","Heri Susanto","07/Dec/20"
"2019120392","PON365","08","2020","0","0","01","08","None","5.2030831129501E+15","Sapriadi","None","L","K1","0","General Helper (PS)","NO","0","21-100-01","13346730","0","34948578.73","0","0","1276077.6","3201119.5","52772505.83","2638625.2915","909205.29","1729420.0015","51043085.8285","0","51043085.8285","63000000","0","0","0","0","0","Pegawai Baru","092261544434000","Heri Susanto","07/Dec/20"
"2020030082","PON380","07","2020","0","0","03","09","94.695.415.3-915.000","5.2030501078907E+15","Saprudin","None","L","TK0","0","General Helper (PS)","NO","0","21-100-01","13563750","0","34870146.1","0","0","1276077.6","474471","50184444.7","2509222.235","909205.29","1600016.945","48584427.755","0","48584427.755","54000000","0","0","0","0","0","Pegawai Baru","092261544434000","Heri Susanto","07/Dec/20"
"2018040071","PON173","06","2020","0","0","01","06","59.786.140.0-523.000","3.30512160885E+15","Solikhin","None","L","K1","0","Mechanic (PS)","NO","0","21-100-01","30508133.33","0","53608679.41","0","0","2662528","8944430","95723770.74","4786188.537","1897051.2","2889137.337","92834633.403","0","92834633.403","63000000","29834633.403","29834633.403","0","0","0","Pegawai Baru","092261544434000","Heri Susanto","07/Dec/20"
"2017060375","PON011","11","2020","0","0","01","11","77.374.158.2-035.000","3.17305140368E+15","Suha Endra","Jl. Qrisdoren I No. 36B RT.07/10, Sukabumi Utara, Kebon Jeruk, Jakarta Barat","L","K2","0","Logistic Officer (PS)","NO","0","21-100-01","58674000","0","140851515.23","0","0","4693920","12614910","216834345.23","6000000","3344418","2655582","214178763.23","0","214178763.23","67500000","146678763.23","146678763.23","0","0","0","Pegawai Baru","092261544434000","Heri Susanto","07/Dec/20"
"2019040342","PON050","09","2020","0","0","01","09","0","5.20410200986E+15","Suhadi","None","L","K2","0","Asst. Support (PS)","NO","0","21-100-01","26746000","0","68602520.16","0","0","2139680","7147150","104635350.16","5231767.508","1524522","3707245.508","100928104.652","0","100928104.652","67500000","33428104.652","33428104.652","0","0","0","Pegawai Baru","092261544434000","Heri Susanto","07/Dec/20"
"2019010572","PON230","11","2020","0","0","01","11","80.916.302.5-118.000","1.20302200482E+15","Sukamdi Sihombing","None","L","K2","0","Driller (PS)","NO","0","21-100-01","60800000","0","138328785.58","0","0","4864000","20064000","224056785.58","6000000","3465600","2534400","221522385.58","0","221522385.58","67500000","154022385.58","154022385.58","0","0","0","Pegawai Baru","092261544434000","Heri Susanto","07/Dec/20"
"2019040344","PON079","12","2020","0","0","01","12","0","5.2042703099E+15","Sukma Irawan","None","L","TK0","0","Driller (PS)","NO","0","21-100-01","27328000","0","63124381.48","0","0","2186240","6812500","99451121.48","4972556.074","1557696","3414860.074","96036261.406","0","96036261.406","54000000","42036261.406","42036261.406","0","0","0","Pegawai Baru","092261544434000","Heri Susanto","07/Dec/20"
"2020010141","PON323","10","2020","0","0","01","10","91.501.776.8-913.000","5.20708270396E+15","Sukma Irwansyah","None","L","TK0","0","HR Admin (PS)","NO","0","21-100-01","23789310","0","58932624.8","0","0","1929187.2","6478055.25","91129177.25","4556458.8625","1374545.88","3181912.9825","87947264.2675","0","87947264.2675","54000000","33947264.2675","33947264.2675","0","0","0","Pegawai Baru","092261544434000","Heri Susanto","07/Dec/20"
"2020010162","PON360","05","2020","0","0","01","05","78.005.137.1-911.000","5.20201051279E+15","Sukma Rizal","None","L","K1","0","SHE Reps (PS)","NO","0","21-100-01","14171428.57","0","33244074.87","0","0","1536000","4140822","53092325.44","2654616.272","1094400","1560216.272","51532109.168","0","51532109.168","63000000","0","0","0","0","0","Pegawai Baru","092261544434000","Heri Susanto","07/Dec/20"
"2020100012","","04","2020","0","0","09","12","69.626.613.9-912.000","5.20708250271E+15","Sumarji","None","L","K1","0","Operator Telehandler (PS)","NO","0","21-100-01","3200000","0","5225433.52","0","0","256000","0","8681433.52","434071.676","182400","251671.676","8429761.844","0","8429761.844","63000000","0","0","0","0","0","Pegawai Baru","092261544434000","Heri Susanto","07/Dec/20"
"2017060244","PON013","11","2020","0","0","01","11","48.703.609.7-953.000","9.10901221072E+15","Suminto","Jl. Anggur Timika Jaya - Mimika Baru, Mimika - Papua","L","K3","0","Driller II (PS)","NO","0","21-100-01","60808000","0","130737199","0","0","4864640","16570180","212980019","6000000","3466056","2533944","210446075","0","210446075","72000000","138446075","138446075","0","0","0","Pegawai Baru","092261544434000","Heri Susanto","07/Dec/20"
"2019020037","PON327","10","2020","0","0","01","10","47.814.980.0-913.000","5.27104170872E+15","Supanji","DSN.S.JORONG  RT/RW : 007/003  KEL.TONGO  KEC.SEKONGKANG  KQB.SUMBAWA BARAT","L","K3","0","Mechanic (PS)","NO","0","21-100-01","46857142.86","0","100716762.72","0","0","3840000","10081644","161495549.58","6000000","2736000","3264000","158231549.58","0","158231549.58","72000000","86231549.58","86231549.58","0","0","0","Pegawai Baru","092261544434000","Heri Susanto","07/Dec/20"
"2017060245","PON014","09","2020","0","0","01","09","87.416.865.1-724.000","7.31107070782E+15","Suparman","Jl. Kapital RW. 04, Sangatta Utara -Sangatta Kutai Timur ","L","K2","0","Driller I (PS)","NO","0","21-100-01","50571400","0","110819245.28","0","0","4224528","17113250","182728423.28","6000000","3009976.2","2990023.8","179738399.48","0","179738399.48","67500000","112238399.48","112238399.48","0","0","0","Pegawai Baru","092261544434000","Heri Susanto","07/Dec/20"
"2018100986","PON271","11","2020","0","0","01","11","98.399.496.3-443.000","3.2050510180006E+14","Supriatna","None","L","K1","0","Mechanic (PS)","NO","0","21-100-01","54400000","0","125399884.17","0","0","4352000","16700055","200851939.17","6000000","3100800","2899200","197952739.17","0","197952739.17","63000000","134952739.17","134952739.17","0","0","0","Pegawai Baru","092261544434000","Heri Susanto","07/Dec/20"
"2019090026","PON272","02","2020","0","0","01","02","85.863.681.4-822.000","7.57105121268E+15","Suratman Suratinoyo","None","L","K3","0","Mechanic (PS)","NO","0","21-100-01","18240000","0","37903352.6","0","0","1459200","6992000","64594552.6","3229727.63","1039680","2190047.63","62404504.97","0","62404504.97","72000000","0","0","0","0","0","Pegawai Baru","092261544434000","Heri Susanto","07/Dec/20"
"2018110679","PON156","12","2020","0","0","01","12","88.999.230.1-521.000","3.30222041084E+15","Suratmantoro","Kampung Baru .RT. 07, Badak Baru - Muara Badak Kutai Kartanegara","L","K2","0","Driller (PS)","NO","0","21-100-01","54406000","0","109519592.42","0","0","4352480","17953980","186232052.42","6000000","3101142","2898858","183333194.42","0","183333194.42","67500000","115833194.42","115833194.42","0","0","0","Pegawai Baru","092261544434000","Heri Susanto","07/Dec/20"
"2017060247","PON015","08","2020","0","0","01","08","88.925.633.5-728.000","6.4020504057E+14","Suratno","None","L","K1","0","Driller I (PS)","NO","0","21-100-01","40674961.9","0","67944602.7","0","0","3481984","14825635","126927183.6","6000000","2480913.6","3519086.4","123408097.2","0","123408097.2","63000000","60408097.2","60408097.2","0","0","0","Pegawai Baru","092261544434000","Heri Susanto","07/Dec/20"
"2020010138","PON304","10","2020","0","0","01","10","14.076.264.2-913.000","5.20418150776E+15","Syafruddin Arief Hidayat","None","L","K3","0","Welder (PS)","NO","0","21-100-01","27142857.15","0","53372280.96","0","0","2400000","6301027","89216165.11","4460808.2555","1710000","2750808.2555","86465356.8545","0","86465356.8545","72000000","14465356.8545","14465356.8545","0","0","0","Pegawai Baru","092261544434000","Heri Susanto","07/Dec/20"
"2019040341","PON248","08","2020","0","0","01","08","0","5.20704150484E+15","Syamsuddin","None","L","K2","0","General Helper (PS)","NO","0","21-100-01","17904150","0","47308935.97","0","0","1458374.4","7519743","74191203.37","3709560.1685","1039091.76","2670468.4085","71520734.9615","0","71520734.9615","67500000","4020734.9615","4020734.9615","0","0","0","Pegawai Baru","092261544434000","Heri Susanto","07/Dec/20"
"2019040364","PON103","12","2020","0","0","01","12","98.195.195.7-913.000","5.20410181176E+15","Syamsul Hidayat","None","L","K2","0","Asst. Welder (PS)","NO","0","21-100-01","48000000","0","112065368.28","0","0","3840000","13080000","176985368.28","6000000","2736000","3264000","173721368.28","0","173721368.28","67500000","106221368.28","106221368.28","0","0","0","Pegawai Baru","092261544434000","Heri Susanto","07/Dec/20"
"2017070531","PON055","10","2020","0","0","01","10","73.276.721.5-823.000","7.1720610037E+15","Tahyal Canga","Lingkungan II, Girian Weru, Dua Girian, Bitung ","L","K3","0","Driller II (PS)","NO","0","21-100-01","60808000","0","112266330.61","0","0","4864640","20066640","198005610.61","6000000","3466056","2533944","195471666.61","0","195471666.61","72000000","123471666.61","123471666.61","0","0","0","Pegawai Baru","092261544434000","Heri Susanto","07/Dec/20"
"2020020041","PON353","10","2020","0","0","01","10","92.507.882.6-913.000","5.20701080694E+15","Tino Feri Ananta","None","L","TK0","0","General Helper (PS)","NO","0","21-100-01","20725410","0","46351618.99","0","0","1822968","5965226","74865222.99","3743261.1495","1298864.7","2444396.4495","72420826.5405","0","72420826.5405","54000000","18420826.5405","18420826.5405","0","0","0","Pegawai Baru","092261544434000","Heri Susanto","07/Dec/20"
"2018090384","PON336","09","2020","0","0","01","09","69.894.275.2-953.000","7.17303250971E+15","Tommy Richard Walenta","JL MOROTAI TAMA PERUM PULUBALA","L","K3","0","Mechanic Drill & Shovel (PS)","NO","0","21-100-01","43714285.72","0","91379190.37","0","0","3888000","8280000","147261476.09","6000000","2770200","3229800","144031676.09","0","144031676.09","72000000","72031676.09","72031676.09","0","0","0","Pegawai Baru","092261544434000","Heri Susanto","07/Dec/20"
"2019040367","PON118","12","2020","0","0","01","12","0","5.20427260291E+15","Tri Murdiono","None","L","TK0","0","Asst. Support (PS)","NO","0","21-100-01","25000000","0","66726878.6","0","0","2000000","6812500","100539378.6","5026968.93","1425000","3601968.93","96937409.67","0","96937409.67","54000000","42937409.67","42937409.67","0","0","0","Pegawai Baru","092261544434000","Heri Susanto","07/Dec/20"
"2019040347","PON075","12","2020","0","0","01","12","98.195.190.8-913.000","5.20427030785E+15","Usman","None","L","K2","0","Driller (PS)","NO","0","21-100-01","27328000","0","63629398.82","0","0","2186240","6812500","99956138.82","4997806.941","1557696","3440110.941","96516027.879","0","96516027.879","67500000","29016027.879","29016027.879","0","0","0","Pegawai Baru","092261544434000","Heri Susanto","07/Dec/20"
"2019090088","PON278","09","2020","0","0","01","09","0","5.20704301272E+15","Wahyu","Dsn. Barunut, RT.003/RW.002, Des. Tatar, Kec. Sekongkang KSB-NTB","L","K2","0","General Helper (PS)","NO","0","21-100-01","18555210","0","50193283.47","0","0","1640671.2","5541479.75","75930644.42","3796532.221","1168978.23","2627553.991","73303090.429","0","73303090.429","67500000","5803090.429","5803090.429","0","0","0","Pegawai Baru","092261544434000","Heri Susanto","07/Dec/20"
"2017080095","PON154","12","2020","0","0","01","12","87.551.916.7-525.000","3.3102525087E+15","Wardi","None","L","K2","0","Senior Driller (PS)","NO","0","21-100-01","60808000","0","121967491.3","0","0","4864640","20066640","207706771.3","6000000","3466056","2533944","205172827.3","0","205172827.3","67500000","137672827.3","137672827.3","0","0","0","Pegawai Baru","092261544434000","Heri Susanto","07/Dec/20"
"2019040352","PON072","09","2020","0","0","01","09","0","5.20411610489E+15","Wiwin Arfawansyah","None","L","K1","0","Asst. Driller (PS)","NO","0","21-100-01","22500000","0","51751444.16","0","0","1800000","6812500","82863944.16","4143197.208","1282500","2860697.208","80003246.952","0","80003246.952","63000000","17003246.952","17003246.952","0","0","0","Pegawai Baru","092261544434000","Heri Susanto","07/Dec/20"
"2020040048","PON384","06","2020","0","0","04","09","None","5.20408110887E+15","Yayat Zulkarnain","None","L","K1","0","Driver (PS)","NO","0","21-100-01","14323320","0","33664598","0","0","1276077.6","2383540.75","51647536.35","2582376.8175","909205.29","1673171.5275","49974364.8225","0","49974364.8225","63000000","0","0","0","0","0","Pegawai Baru","092261544434000","Heri Susanto","07/Dec/20"
"2018040065","PON101","12","2020","0","0","01","12","46.023.769.4-627.000","3.51005140975E+15","Yoni Ali Mashuri","Jl. Arjuna Dsn. Sumberayu, RT. 01/03, Sumberberas, Muncar, Banyuwangi","L","K2","0","Mechanic 1-1 (PS)","NO","0","21-100-01","45901200","0","100112346.49","0","0","3672096","12262500","161948142.49","6000000","2616368.4","3383631.6","158564510.89","0","158564510.89","67500000","91064510.89","91064510.89","0","0","0","Pegawai Baru","092261544434000","Heri Susanto","07/Dec/20"
"2019120333","PON369","11","2020","0","0","01","11","85.532.402.6-913.000","5.20701190489E+15","Yunasril Amir","None","L","K1","0","General Helper (PS)","NO","0","21-100-01","15842460","0","46162995.56","0","0","1458374.4","3201119.5","66664949.46","3333247.473","1039091.76","2294155.713","64370793.747","0","64370793.747","63000000","1370793.747","1370793.747","0","0","0","Pegawai Baru","092261544434000","Heri Susanto","07/Dec/20"
